       IDENTIFICATION DIVISION.                                         01/15/81
       PROGRAM-ID. BSL800B.
       AUTHOR. PEGGY G ROGERS.                                             LV001
       DATE-COMPILED.                                                   BSL800
      *REMARKS.                                                         BSL800
      *    THIS PROGRAM PROVIDES AN INTERFACE WITH THE ACCOUNT/FUND     BSL800
      *    PROFILE SYSTEM (AFPS) FOR THE BUDGET SYSTEM.  THE CALLING    BSL800
      *    PROGRAM FROM THE BUDGET SYSTEM PROVIDES DATA IN THE KEY      BSL800
      *    PORTION OF THE AFPS-RECORD.  THERE ARE THREE POSSIBLE        BSL800
      *    RESPONSES THIS PROGRAM CAN MAKE TO THE CALLING PROGRAM,      BSL800
      *    BASED ON THE DATA PASSED IN THE KEY:                         BSL800
      *      -- THE RECORD IS REJECTED, I.E. THE AFPS-REC-FOUND-FLAG    BSL800
      *         IS SET TO 'N' AND NO DATA ATTRIBUTES ARE RETURNED       BSL800
      *      -- DATA ATTRIBUTES ARE RETURNED, BUT THE RECORD IS         BSL800
      *         FLAGGED WITH A WARNING.  THE AFPS-REC-FOUND-FLAG IS     BSL800
      *         SET TO ONE OF THE FOLLOWING CODES:                      BSL800
      *            1 -- THE ACCT/FUND COMBINATION DOES NOT EXIST        BSL800
      *                 ON THE ACCT/FUND AFPS FILE (AFPSACFD)           BSL800
      *            2 -- THE ACCOUNT DOES NOT APPEAR ON THE ACCOUNT      BSL800
      *                 AFPS FILE (AFPSACCT)                            BSL800
      *            3 -- THE FUND DOES NOT APPEAR ON THE FUND AFPS       BSL800
      *                 FILE (AFPSFUND)                                 BSL800
      *            4 -- NEITHER THE ACCOUNT NOR THE FUND APPEAR ON      BSL800
      *                 THE AFPS FILES (AFPSACCT AND AFPSFUND           BSL800
      *                 RESPECTIVELY)                                   BSL800
      *            5 -- THE ACCOUNT NUMBER IS AN APPROPRIATION ACCOUNT, BSL800
      *                 DOES NOT FALL WITHIN THE RANGES IN THE FUNCTION BSL800
      *                 CODE TABLE, AND THE FIRST TWO DIGITS OF THE     BSL800
      *                 ACCOUNT DO NOT COMPRISE A VALID FUNCTION CODE   BSL800
      *            6 -- SAME SITUATION AS 5, PLUS EITHER THE ACCOUNT    BSL800
      *                 OR FUND OR ACCOUNT/FUND COMBINATION DO NOT      BSL800
      *                 APPEAR ON THE AFPS FILES (I.E. WARNING CODES    BSL800
      *                 1, 2, 3 OR 4 COMBINED WITH WARNING CODE 5)      BSL800
      *      -- DATA ATTRIBUTES ARE RETURNED, AND THE AFPS-REC-         BSL800
      *         FOUND-FLAG IS SET TO 'Y' TO INDICATE THAT ALL IS        BSL800
      *         WELL                                                    BSL800
                                                                        BSL800
      *    -----------------------------------------------------------  BSL010
      *                       CHANGE LOG                                BSL010
                                                                        BSL010
      *     8-4-87     BW     RECOMPILED TO ACCEPT UPDATED BSL800
      *                       FOR THE VSAM DATA SET - AFP000V2
      *                       RECORD SIZE INCREASED
      *    6-27-91     SJ     CHANGED TO REMOVE ALL CODE RELATED
      *                       TO AFPS FILES WITH IFIS IMPLEMENTATION.
      *                       PGM WILL ONLY FILL 'ATTRIBUTE' FIELDS AND
      *                       NOT VALIDATE AFP ACCT/FUND/SUB. VALUES 2-4
      *                       ARE NO LONGER APPLICABLE FOR AFPS-REC-
      *                       FOUND-FLAG. SOME CODE COMMENTED OUT FOR
      *                       THIS CHANGE WITH '**'. THE AFP ACCOUNT AND
      *                       FUND TITLES OBTAINED FROM IFIS DATABASE
      *                       EXTERNAL REPORT CODE DESCRIPTIONS WHEN
      *                       NEEDED, INDICATED BY AFPS-GET-TITLE-FLAG.
      *                       NOTE: COLLEGE-CODE IS NOW SET TO SPACES
      *                       B/C AFPS VSAM FILE DOESN'T SET IT ANYMORE.

      *    9-30-91    MLJ     THE AFPS COLLEGE-CODE IS OBTAINED FROM
      *                       IFIS DATABASE DATA CODES TABLE.

      *   11-26-91    MLJ     MODIFIED REV-GRP-TABLE-FILL FOR REV-GRP-
      *                       TBL-CODES 020 AND 030.  THE ACCOUNT RANGES
      *                       WERE CHANGED AT RESOURE MANAGEMENTS
      *                       REQUEST.

      *   12-10-91    MLJ     MODIFIED REV-GRP-TABLE-FILL FOR REV-GRP-
      *                       TBL-CODES 900, 910, 920, 930, 940, 950.
      *                       THE ACCOUNT RANGES WERE CHANGED TO ALLOW
      *                       THE GENERATED INCOME ACCOUNT RANGES TO
      *                       BE LOCATED.

      *   10-14-92    MLJ     MODIFIED REV-GRP-TABLE-FILL, ACCOUNT
      *                       567500 CHANGED TO 720800 FOR REV-GRP-
      *                       TBL-CODES 900, 910, 920, 930, 940, 950.

      *   06-07-93    MLJ     MODIFIED REV-GRP-TABLE-FILL TO ALLOW
      *                       ACCT 720800 WITH FUND 69741 FOR REV-
      *                       GRP-TBL-CODE 970.  INCREASED SIZE
      *                       OF OCCURS.  BP-022

      *   04-13-94    MLJ     NEW UCOP FUND AND ACCOUNTS ADDED TO REV-
      *                       GRP-TABLE-FILL.  BP019

      *   10-25-94    MLJ     ADDITIONAL UCOP FUND AND ACCOUNT TO REV-
      *                       GRP-TABLE-FILL.  BP060

      *   05-15-00    MLJ     MODIFIED REV-GRP-TABLE-FILL TO ALLOW
      *                       ACCT 119850 WITH FUND 38756 FOR REV-
      *                       GRP-TBL-CODE 970.  KIS025

      *   05-31-00    MLJ     AS PER UCOP, REVISED ACCT 119750 TO SPLIT
      *                       FUND RANGE BETWEEN CODE 915 AND 920
      *                       FBP098

      *   06-19-00    MLJ     REVISED ENTIRE REV-GRP-TABLE AS PER UCOP
      *                       FBP099

      *   07-27-00    MLJ     UCOP ADD NEW FUND RANGE TO REV-GRP-TABLE
      *                       KIS029

      *   07-27-01    MLJ     UCOP EXTEND 119900 TO INCLUDE 19934 FUNDS
      *                       ACR 29022

      *   08-02-04    MLJ     ADD ACCT 220084 FUND 20078 TO REV-GRP-TABL

      *   10-29-04    MLJ     CHANGED REV-GRP-TABL ENTRY FROM 970 TO 930

      *   11-29-04    MLJ     ADD ACCT 207110 FUND 40100 TO REV-GRP-TABL
      *   07-18-05    MLJ     ADD ACCT 269989 FUND 00000 TO REV-GRP-TABL
      *                       ACR 43077
001MLJ*   01-31-08    MLJ     ADD ACCT 220020 FUND 19942 TO REV-GRP-TABL
002MLJ*   03-25-08    MLJ     INC ACCT RANGE FROM 220399 TO 220499
003MLJ*   07-14-09    MLJ     ADD FUND RANGE 13000-13999 TO RAFG 930
004MLJ*   06-06-11    MLJ     ADD ACCT 119900 TO RAFG 990
      *                       ADD ACCT 220077, 220080-220081 TO RAFG 120
005MLJ*   11-03-11    MLJ     ADD ACCT 119850, FUND 69085 TO RAFG 970
006MLJ*   07-09-12    MLJ     ADDED MULTIPLE NEW LINES TO RAFG TABLE,
      *                       REMOVED ONE LINE                   FP0018
      *                       CHANGED OCCURS CLAUSE IN REV-GRP-TBL
007MLJ*   05-27-14    MLJ     ADD ACCT 220007, FUND 19941 TO RAFG 170
008MLJ*   06-06-14    MLJ     ADD ACCT 720706, FUND 19941 TO RAFG 990
009MLJ*   06-24-14    MLJ     ADDED NEW RAFG ENTRIES FOR 980 AND 990
010MLJ*   11-24-14    MLJ     ADDED NEW RAFG ENTRIES FOR 750
011MLJ*   07-13-15    MLJ     ADDED NEW RAFG ENTRIES FOR 930 AND
      *                       INC OCCURS CLAUSE IN REV-GRP-TBL
012MLJ*   08-17-15    MLJ     ADDED NEW RAFG ENTRIES FOR 750 AND
      *                       INC OCCURS CLAUSE IN REV-GRP-TBL
013MLJ*   10-12-15    MLJ     ADDED NEW RAFC ENTRIES FOR 930
014MLJ*   04-04-16    MLJ     ADDED NEW RAFC ENTRIES FOR SOFI
DEVMJM*   06-23-16    MJM     CHANGED SOFI RAFG TABLE OCCURS TO 137
015MLJ*   07-15-16    MLJ     ADDED NEW RAFC ENTRIES AND UPDATED OCCURS
016MLJ*   07-26-16    MLJ     CHANGE RAFG ON EXISTING ENTRY
001AT *   06-21-18    AT      ADD RAFG ENTRY TO PREVENT ABEND
018AT *   07-11-19    AT      ADD RAFG ENTRY TO PREVENT ABEND
      *%****************************************************************
      *%                                                               *
      *%  Converted using Forecross Corporation Redeployment Software  *
      *%                                                               *
      *%               Convert/IDMS-DB Version 8 Release 01            *
      *%                                                               *
      *%                Converted on 11/01/00 at 11:30                 *
      *%                                                               *
      *%****************************************************************
      *%              COPYRIGHT FORECROSS CORPORATION                  *
      *%                2000  ALL RIGHTS RESERVED                      *
      *%****************************************************************
           COPY CBCVDBNT.

      /
      *%-------------------------------------------------------------- *
      *%
      *%  *** TABLE VIEWS USED IN THIS PROGRAM
      *%
      *%UVL_USER_VAL_V        R4037-USER-VAL                   CBL CPY
      *%UCD_USER_CDS_V        R4038-USER-CODES                 CBL CPY
      *%XTE_XTRN_ENTY_V       R4052-XTRN-ENTY                  CBL CPY
      *%XTC_XTRN_CD_V         R4054-XTRN-CODE                  CBL CPY
      *%
      *%  *** CURSORS DECLARED IN THIS PROGRAM
      *%
      *%CURSOR S_4038_4037_N - FORWARD SUBSET OF R4037-USER-VAL
      *%
      *%  *** SUBROUTINES GENERATED FOR THIS PROGRAM
      *%
      *%000-SQL-INITIALIZATION
      *%986-RESET-KEYS
      *%906-02-S-4052-4054
      *%906-00N-S-4038-4037
      *%906-05-R4038-USER-CODES
      *%906-05-R4052-XTRN-ENTY
      *%985-CURR-R4037-USER-VAL
      *%985-CURR-R4038-USER-CODES
      *%985-CURR-R4052-XTRN-ENTY
      *%985-CURR-R4054-XTRN-CODE
      *%985-EOS-S-4038-4037
      *%996-COMMIT
      *%
      *%-------------------------------------------------------------- *
       ENVIRONMENT DIVISION.                                            BSL800
       CONFIGURATION SECTION.                                           BSL800
       SOURCE-COMPUTER.  IBM-370.                                       BSL800
       OBJECT-COMPUTER.  IBM-370.                                       BSL800
       INPUT-OUTPUT SECTION.                                            BSL800
       FILE-CONTROL.                                                    BSL800
      *IDMS-CONTROL SECTION.                                            00840000
      *PROTOCOL.   MODE IS BATCH-AUTOSTATUS DEBUG                       00850000
      *%           IDMS-RECORDS MANUAL.                                 00860000
                                                                        00870000
       DATA DIVISION.                                                   00880000
      *SCHEMA SECTION.                                                  00890000
      *DB FIMSNWKB WITHIN FIMSNTWN.                                     00900000
      *DB FCHSB002 WITHIN FIMSNTWK.                                     00900000
                                                                        BSL800
       FILE SECTION.                                                    BSL800

       WORKING-STORAGE SECTION.                                         BSL800
                                                                        BSL800
       01  DBLINK-USER-CD   PIC X(8) VALUE 'BSL800B'.
       01  WS-AFPS-ACCOUNT-NO.                                          BSL800
           05  WS-AFPS-TEST-ACCT            PIC X(06).                  BSL800
                                                                        BSL800
       01  WS-AFPS-FUND-NO.                                             BSL800
           05  WS-AFPS-TEST-FUND            PIC X(05).                  BSL800
           05  FILLER                       PIC X(01).                  BSL800
                                                                        BSL800
       01  WS-ACCOUNT-XTRNL-CODE.                                       BSL800
           05  FILLER                       PIC X(01) VALUE '6'.        BSL800
           05  WS-ACCOUNT-4054              PIC X(06).                  BSL800
           05  FILLER                       PIC X(03) VALUE SPACES.     BSL800
                                                                        BSL800
       01  WS-FUND-XTRNL-CODE.                                          BSL800
           05  FILLER                       PIC X(01) VALUE '6'.        BSL800
           05  WS-FUND-4054                 PIC X(05).                  BSL800
           05  FILLER                       PIC X(04) VALUE SPACES.     BSL800
                                                                        BSL800
       01  WS-SUB-BUDGET-CODE.                                          BSL800
           05  WS-SUB-BUDGET-CODE-CHAR-1    PIC X(01).                  BSL800
           05  WS-SUB-BUDGET-CODE-CHAR-2    PIC X(01).                  BSL800
                                                                        BSL800
       01  FIRST-CALL-FLAG                  PIC X(01) VALUE 'Y'.        BSL800
           88  FIRST-CALL                            VALUE 'Y'.         BSL800
       01  FUNCTION-CODE-IN-TABLE-FLAG     PIC X(01).                   BSL800
       01  AFPSACCT-REC-FOUND-FLAG         PIC X(01).                   BSL800
       01  AFPSFUND-REC-FOUND-FLAG         PIC X(01).                   BSL800
                                                                        BSL800
       01  REV-GRP-TABLE-FILL.                                          BSL800
      ***            UCOP SUPPLIED INFORMATION
           05  FILLER   PIC X(29) VALUE '219900 219900 19900 19999 010'.BSL800
           05  FILLER   PIC X(29) VALUE '220500 220500 19900 19999 010'.BSL800
           05  FILLER   PIC X(29) VALUE '218000 218069 18000 18069 020'.BSL800
           05  FILLER   PIC X(29) VALUE '220501 220569 20501 20569 020'.BSL800
           05  FILLER   PIC X(29) VALUE '218070 218199 18070 18199 030'.BSL800
           05  FILLER   PIC X(29) VALUE '220570 220599 20570 20599 030'.BSL800
           05  FILLER   PIC X(29) VALUE '220020 220024 19900 19900 100'.BSL800
001MLJ     05  FILLER   PIC X(29) VALUE '220020 220020 19942 19944 100'.BSL800
           05  FILLER   PIC X(29) VALUE '220080 220089 19900 19900 120'.BSL800
           05  FILLER   PIC X(29) VALUE '220000 220001 20000 20001 130'.BSL800
           05  FILLER   PIC X(29) VALUE '220094 220097 20094 20097 140'.BSL800
           05  FILLER   PIC X(29) VALUE '220290 220291 20290 20291 150'.BSL800
           05  FILLER   PIC X(29) VALUE '219901 219999 20300 20399 160'.BSL800
002MLJ     05  FILLER   PIC X(29) VALUE '220300 220499 20300 20399 160'.BSL800
           05  FILLER   PIC X(29) VALUE '220002 220019 19900 19900 170'.BSL800
           05  FILLER   PIC X(29) VALUE '220002 220019 20002 20019 170'.BSL800
           05  FILLER   PIC X(29) VALUE '220025 220079 19900 19900 170'.BSL800
           05  FILLER   PIC X(29) VALUE '220025 220079 20025 20079 170'.BSL800
MLJ        05  FILLER   PIC X(29) VALUE '220084 220084 20078 20078 170'.BSL800
           05  FILLER   PIC X(29) VALUE '220080 220089 20080 20089 170'.BSL800
           05  FILLER   PIC X(29) VALUE '220090 220093 19900 19900 170'.BSL800
           05  FILLER   PIC X(29) VALUE '220090 220093 20090 20093 170'.BSL800
           05  FILLER   PIC X(29) VALUE '220098 220289 19900 19900 170'.
           05  FILLER   PIC X(29) VALUE '220098 220289 20098 20289 170'.
           05  FILLER   PIC X(29) VALUE '220292 220299 19900 19900 170'.
           05  FILLER   PIC X(29) VALUE '220292 220299 20292 20299 170'.
MLJ        05  FILLER   PIC X(29) VALUE '207110 207110 40100 40100 200'.BSL800
           05  FILLER   PIC X(29) VALUE '260000 262999 19900 19900 200'.BSL800
           05  FILLER   PIC X(29) VALUE '260000 262999 60000 62999 200'.BSL800
           05  FILLER   PIC X(29) VALUE '264000 265999 19900 19900 200'.BSL800
           05  FILLER   PIC X(29) VALUE '264000 265999 64000 65999 200'.BSL800
           05  FILLER   PIC X(29) VALUE '263000 263999 63000 63999 300'.BSL800
           05  FILLER   PIC X(29) VALUE '221000 221099 21000 21099 400'.BSL800
           05  FILLER   PIC X(29) VALUE '221100 224999 21100 24999 430'.BSL800
           05  FILLER   PIC X(29) VALUE '229000 233999 29000 33999 430'.BSL800
           05  FILLER   PIC X(29) VALUE '225000 228999 25000 28999 460'.BSL800
           05  FILLER   PIC X(29) VALUE '218200 218999 18200 18999 500'.
           05  FILLER   PIC X(29) VALUE '220400 220499 20400 20499 500'.
           05  FILLER   PIC X(29) VALUE '220600 220939 20600 20939 550'.
           05  FILLER   PIC X(29) VALUE '220940 220999 20940 20999 550'.
           05  FILLER   PIC X(29) VALUE '277001 277149 77001 77149 550'.BSL800
           05  FILLER   PIC X(29) VALUE '239800 259999 39800 59999 600'.BSL800
           05  FILLER   PIC X(29) VALUE '278000 279999 78000 79999 600'.BSL800
           05  FILLER   PIC X(29) VALUE '266000 266099 66000 66099 700'.BSL800
           05  FILLER   PIC X(29) VALUE '266100 269999 19900 19900 750'.BSL800
           05  FILLER   PIC X(29) VALUE '266100 269999 66100 69749 750'.BSL800
           05  FILLER   PIC X(29) VALUE '266100 269999 69752 69999 750'.BSL800
           05  FILLER   PIC X(29) VALUE '270000 274999 70000 74999 800'.BSL800
           05  FILLER   PIC X(29) VALUE '119700 119700 75000 75999 900'.BSL800
           05  FILLER   PIC X(29) VALUE '119710 119710 76000 76999 910'.BSL800
           05  FILLER   PIC X(29) VALUE '119750 119750 04100 07426 915'.BSL800
           05  FILLER   PIC X(29) VALUE '119750 119750 07435 09499 915'.BSL800
           05  FILLER   PIC X(29) VALUE '119750 119750 09594 09594 915'.BSL800
           05  FILLER   PIC X(29) VALUE '119750 119750 09596 09997 915'.BSL800
           05  FILLER   PIC X(29) VALUE '119750 119750 07427 07434 920'.BSL800
           05  FILLER   PIC X(29) VALUE '119750 119750 09500 09593 920'.BSL800
           05  FILLER   PIC X(29) VALUE '119750 119750 09595 09595 920'.BSL800
           05  FILLER   PIC X(29) VALUE '119820 119820 34100 39997 930'.BSL800
003MLJ     05  FILLER   PIC X(29) VALUE '119820 119820 13000 13999 930'.BSL800
           05  FILLER   PIC X(29) VALUE '119850 119850 69750 69750 940'.BSL800
           05  FILLER   PIC X(29) VALUE '119850 119850 69751 69751 950'.BSL800
           05  FILLER   PIC X(29) VALUE '119850 119850 20094 20097 960'.BSL800
           05  FILLER   PIC X(29) VALUE '119850 119850 20000 20093 970'.BSL800
           05  FILLER   PIC X(29) VALUE '119850 119850 20098 33999 970'.BSL800
           05  FILLER   PIC X(29) VALUE '119850 119850 60000 69749 970'.BSL800
           05  FILLER   PIC X(29) VALUE '119850 119850 69752 74999 970'.BSL800
           05  FILLER   PIC X(29) VALUE '119900 119900 19900 19934 990'.BSL800
018AT      05  FILLER   PIC X(29) VALUE '119820 119820 71000 71005 930'.BSL800
      ***    LOCALLY REQUIRED INFORMATION
           05  FILLER   PIC X(29) VALUE '520500 520500 19900 19999 010'.BSL800
           05  FILLER   PIC X(29) VALUE '220550 220550 18000 18069 020'.BSL800
           05  FILLER   PIC X(29) VALUE '220550 220550 20501 20569 020'.BSL800
           05  FILLER   PIC X(29) VALUE '518000 518000 18000 18069 020'.BSL800
           05  FILLER   PIC X(29) VALUE '520550 520550 18000 18069 020'.BSL800
           05  FILLER   PIC X(29) VALUE '520550 520550 20501 20569 020'.BSL800
           05  FILLER   PIC X(29) VALUE '218001 218001 18070 18199 030'.BSL800
           05  FILLER   PIC X(29) VALUE '220550 220550 18070 18199 030'.BSL800
           05  FILLER   PIC X(29) VALUE '220550 220550 20570 20599 030'.BSL800
           05  FILLER   PIC X(29) VALUE '518001 518001 18070 18199 030'.BSL800
           05  FILLER   PIC X(29) VALUE '520550 520550 18070 18199 030'.BSL800
           05  FILLER   PIC X(29) VALUE '520550 520550 20570 20599 030'.BSL800
004MLJ     05  FILLER   PIC X(29) VALUE '220077 220077 19941 19941 120'.BSL800
004MLJ     05  FILLER   PIC X(29) VALUE '220080 220081 19941 19941 120'.BSL800
MLJTST     05  FILLER   PIC X(29) VALUE '220000 220000 20252 20271 170'.BSL800
007MLJ     05  FILLER   PIC X(29) VALUE '220007 220007 19941 19941 170'.
006MLJ     05  FILLER   PIC X(29) VALUE '220026 220026 19941 19941 170'.
  |        05  FILLER   PIC X(29) VALUE '220075 220075 19941 19941 170'.
  |        05  FILLER   PIC X(29) VALUE '220110 220110 19941 19941 170'.
  |        05  FILLER   PIC X(29) VALUE '220140 220140 19941 19941 170'.
  |        05  FILLER   PIC X(29) VALUE '220150 220150 19941 19941 170'.
006MLJ     05  FILLER   PIC X(29) VALUE '220160 220160 19941 19941 170'.
           05  FILLER   PIC X(29) VALUE '520084 520084 20078 20078 170'.
016MLJ     05  FILLER   PIC X(29) VALUE '720901 720901 99100 99100 170'.BSL800
006MLJ     05  FILLER   PIC X(29) VALUE '260900 260900 19941 19941 200'.BSL800
MJM        05  FILLER   PIC X(29) VALUE '269989 569989 00000 60298 200'.BSL800
           05  FILLER   PIC X(29) VALUE '560000 562999 60000 62999 200'.BSL800
           05  FILLER   PIC X(29) VALUE '518002 518002 18200 18999 500'.BSL800
015MLJ     05  FILLER   PIC X(29) VALUE '260000 260000 68020 68025 750'.BSL800
           05  FILLER   PIC X(29) VALUE '266100 269999 20094 20094 750'.BSL800
012MLJ     05  FILLER   PIC X(29) VALUE '266502 266502 60502 60502 750'.BSL800
010MLJ     05  FILLER   PIC X(29) VALUE '720916 720916 67531 67531 750'.BSL800
010MLJ     05  FILLER   PIC X(29) VALUE '720917 720917 67531 67531 750'.BSL800
           05  FILLER   PIC X(29) VALUE '267500 267500 75000 75999 900'.BSL800
           05  FILLER   PIC X(29) VALUE '720800 720800 75000 75999 900'.BSL800
           05  FILLER   PIC X(29) VALUE '267500 267500 76000 76999 910'.BSL800
           05  FILLER   PIC X(29) VALUE '720800 720800 76000 76999 910'.BSL800
006MLJ     05  FILLER   PIC X(29) VALUE '720753 720759 05397 05397 915'.BSL800
           05  FILLER   PIC X(29) VALUE '267500 267500 04100 09599 920'.BSL800
006MLJ     05  FILLER   PIC X(29) VALUE '720800 720800 04100 05396 920'.BSL800
006MLJ     05  FILLER   PIC X(29) VALUE '720800 720800 05398 07426 920'.BSL800
006MLJ     05  FILLER   PIC X(29) VALUE '720800 720800 07428 09599 920'.BSL800
006MLJ     05  FILLER   PIC X(29) VALUE '720753 720759 07427 07427 920'.BSL800
           05  FILLER   PIC X(29) VALUE '119800 119800 39800 39999 925'.BSL800
           05  FILLER   PIC X(29) VALUE '119800 119800 39600 39799 930'.BSL800
           05  FILLER   PIC X(29) VALUE '234100 239799 34100 39599 930'.BSL800
011MLJ     05  FILLER   PIC X(29) VALUE '268607 268607 68607 68607 930'.BSL800
           05  FILLER   PIC X(29) VALUE '239600 239799 39600 39799 930'.BSL800
013MLJ     05  FILLER   PIC X(29) VALUE '720800 720800 16200 16999 930'.BSL800
           05  FILLER   PIC X(29) VALUE '720800 720800 34100 39599 930'.BSL800
011MLJ     05  FILLER   PIC X(29) VALUE '720800 720800 68606 68606 930'.BSL800
MLJ        05  FILLER   PIC X(29) VALUE '119820 119820 38756 38756 930'.BSL800
013MLJ     05  FILLER   PIC X(29) VALUE '119820 119820 16200 16999 930'.BSL800
           05  FILLER   PIC X(29) VALUE '267500 267500 69750 69750 940'.BSL800
006MLJ     05  FILLER   PIC X(29) VALUE '720753 720759 69750 69750 940'.BSL800
           05  FILLER   PIC X(29) VALUE '720800 720800 69750 69750 940'.BSL800
           05  FILLER   PIC X(29) VALUE '267500 267500 69751 69751 950'.BSL800
           05  FILLER   PIC X(29) VALUE '720800 720800 69751 69751 950'.BSL800
009MLJ     05  FILLER   PIC X(29) VALUE '720814 720814 20095 20095 960'.BSL800
           05  FILLER   PIC X(29) VALUE '119850 119850 18000 18199 970'.BSL800
005MLJ     05  FILLER   PIC X(29) VALUE '119850 119850 69085 69085 970'.BSL800
           05  FILLER   PIC X(29) VALUE '720800 720800 69741 69741 970'.BSL800
014MLJ     05  FILLER   PIC X(29) VALUE '720901 720901 99200 99200 970'.BSL800
009MLJ     05  FILLER   PIC X(29) VALUE '720814 720814 20000 20000 980'.BSL800
008MLJ     05  FILLER   PIC X(29) VALUE '720706 720706 19933 19934 990'.BSL800
009MLJ     05  FILLER   PIC X(29) VALUE '720706 720706 19941 19941 990'.BSL800
006MLJ     05  FILLER   PIC X(29) VALUE '720753 720759 19933 19934 990'.BSL800
006MLJ     05  FILLER   PIC X(29) VALUE '720800 720800 19941 19941 990'.BSL800
009MLJ     05  FILLER   PIC X(29) VALUE '720901 720901 19900 19932 990'.BSL800
006MLJ     05  FILLER   PIC X(29) VALUE '720901 720901 19941 19941 990'.BSL800
009MLJ     05  FILLER   PIC X(29) VALUE '720901 720901 19945 19999 990'.BSL800
004MLJ     05  FILLER   PIC X(29) VALUE '119900 119900 19941 19941 990'.BSL800
001AT      05  FILLER   PIC X(29) VALUE '566151 566151 66151 66151 200'.BSL800
018AT      05  FILLER   PIC X(29) VALUE '720800 720800 71000 71005 930'.BSL800
                                                                        BSL800
       01  REV-GRP-TABLE REDEFINES REV-GRP-TABLE-FILL.                  BSL800
018AT      05  REV-GRP-TBL       OCCURS 142 TIMES                       BSL800
                                 INDEXED BY GRPX.                       BSL800
               10  REV-GRP-TBL-ACCT-LO          PIC X(07).              BSL800
               10  REV-GRP-TBL-ACCT-HI          PIC X(07).              BSL800
               10  REV-GRP-TBL-FUND-LO          PIC X(06).              BSL800
               10  REV-GRP-TBL-FUND-HI          PIC X(06).              BSL800
               10  REV-GRP-TBL-CODE             PIC X(03).              BSL800
                                                                        BSL800
       01  FUNCTION-CODE-TABLE-FILL.                                    BSL800
           05  FILLER    PIC X(16) VALUE '409900 409996 41'.            BSL800
           05  FILLER    PIC X(16) VALUE '409997 409997 40'.            BSL800
           05  FILLER    PIC X(16) VALUE '440000 599999 44'.            BSL800
           05  FILLER    PIC X(16) VALUE '770000 799999 78'.            BSL800
                                                                        BSL800
       01  FUNCTION-CODE-TABLE REDEFINES FUNCTION-CODE-TABLE-FILL.      BSL800
           05  FUNCTION-CODE-TBL OCCURS 4 TIMES INDEXED BY FNCTX.       BSL800
               10  FUNCTION-CODE-TBL-ACCT-LO  PIC X(07).                BSL800
               10  FUNCTION-CODE-TBL-ACCT-HI  PIC X(07).                BSL800
               10  FUNCTION-CODE              PIC X(02).                BSL800
                                                                        BSL800
       01  WS-AFPS-APPROP-ACCT.                                         BSL800
           05  WS-FUNCTION-CODE         PIC X(02).                      BSL800
               88  VALID-FUNCTION-CODE                                  BSL800
                     VALUE '40' '41' '42' '43' '44'                     BSL800
                           '60' '61' '62' '64' '66'                     BSL800
                           '68' '72' '76' '78' '80'.                    BSL800
           05  WS-COLLEGE-CODE          PIC X(02) VALUE SPACES.         BSL800
           05  WS-DEPT-CODE             PIC X(02) VALUE SPACES.         BSL800
           05  FILLER                   PIC X(01) VALUE SPACES.         BSL800

       01  HOLD-FC-ACCOUNT-NO           PIC X(7)  VALUE SPACES.
           88  FUNCT-CODE-EXC-40     VALUE '409997'.
           88  FUNCT-CODE-EXC-41     VALUE '409900' THRU '409996'.
           88  FUNCT-CODE-EXC-44     VALUE '440000' THRU '599999'.
           88  FUNCT-CODE-EXC-78     VALUE '770000' THRU '799999'.

       01  HOLD-FUNCTION-ACCT     REDEFINES HOLD-FC-ACCOUNT-NO.
           05  ACCOUNT-1-2              PIC X(2).
           05  FILLER                   PIC X(5).

       01  HOLD-STATUS-AREA.
           05  KEY-STATUS               PIC X(12) VALUE SPACES.
           05  FILE-NAME-STATUS         PIC X(18) VALUE SPACES.
           05  RECORD-STATUS            PIC X(02) VALUE SPACES.

       01  AFP-SUB                         PIC  9(3)   VALUE 0.

       01  HOLD-BUDGET-LOCATION.
           05  HOLD-LOCATION-FILLER        PIC  X.
           05  HOLD-AFPS-LOCATION          PIC  X.

       01  HOLD-BUDGET-SUB.
           05  HOLD-1ST-SUB-BUDGET         PIC  X.
           05  HOLD-2ND-SUB-BUDGET         PIC  X.
                                                                        BSL800
      *01  COPY IDMS SUBSCHEMA-CONTROL.
       01  SUBSCHEMA-CONTROL  PIC X.

      *%****************************** *
      *% UVL_USER_VAL_V DATA VIEW AREAS
      *%****************************** *
      *%   COPY CBID4037.
CPYNME     COPY R4037.
      *01  COPY IDMS R4037-USER-VAL.

      *%****************************** *
      *% UCD_USER_CDS_V DATA VIEW AREAS
      *%****************************** *
      *%   COPY CBID4038.
CPYNME     COPY R4038.
      *01  COPY IDMS R4038-USER-CODES.

      *%****************************** *
      *% XTE_XTRN_ENTY_V DATA VIEW AREAS
      *%****************************** *
      *%   COPY CBID4052.
CPYNME     COPY R4052.
      *01  COPY IDMS R4052-XTRN-ENTY.

      *%****************************** *
      *% XTC_XTRN_CD_V DATA VIEW AREAS
      *%****************************** *
      *%   COPY CBID4054.
CPYNME     COPY R4054.
      *01  COPY IDMS R4054-XTRN-CODE.
UCSD1      EXEC SQL
UCSD1          INCLUDE HVMSL
UCSD1      END-EXEC.
UCSD1 *%   EXEC SQL
UCSD1 *%       INCLUDE ACMSGHT
CPYNME     COPY ACMSGHT.
UCSD1 *%   END-EXEC.
           EXEC SQL
               INCLUDE CBCVDBCA
           END-EXEC.

      /
      *%-------------------------------------------------------------- *
      *%                                                               *
      *%          STANDARD CONVERT/DB COMMUNICATION AREAS              *
      *%                                                               *
      *%-------------------------------------------------------------- *
           COPY CBCVDBXD.
           COPY BTCHWS.
       01  DBLINK-NAMES.
           05  DBLINK-SCHEMA-NAME.
               10  FILLER                   PIC X(8)
                       VALUE 'FIMSNTWN'.
           05  DBLINK-RECORD-NAMES.
               10  DBLINK-R4000-COA         PIC X(16)
                       VALUE 'R4000-COA'.
               10  DBLINK-R4001-FUND        PIC X(16)
                       VALUE 'R4001-FUND'.
               10  DBLINK-R4002-ORGN        PIC X(16)
                       VALUE 'R4002-ORGN'.
               10  DBLINK-R4003-ACCT        PIC X(16)
                       VALUE 'R4003-ACCT'.
               10  DBLINK-R4004-PROG        PIC X(16)
                       VALUE 'R4004-PROG'.
               10  DBLINK-R4006-LCTN        PIC X(16)
                       VALUE 'R4006-LCTN'.
               10  DBLINK-R4008-FNDT        PIC X(16)
                       VALUE 'R4008-FNDT'.
               10  DBLINK-R4011-SYSDAT      PIC X(16)
                       VALUE 'R4011-SYSDAT'.
               10  DBLINK-R4014-ACTT        PIC X(16)
                       VALUE 'R4014-ACTT'.
               10  DBLINK-R4016-BDGT-CTRL   PIC X(16)
                       VALUE 'R4016-BDGT-CTRL'.
               10  DBLINK-R4021-CTRL-ACCTS  PIC X(16)
                       VALUE 'R4021-CTRL-ACCTS'.
               10  DBLINK-R4026-INDRT-COST  PIC X(16)
                       VALUE 'R4026-INDRT-COST'.
               10  DBLINK-R4030-COST-SHARE  PIC X(16)
                       VALUE 'R4030-COST-SHARE'.
               10  DBLINK-R4033-BANK        PIC X(16)
                       VALUE 'R4033-BANK'.
               10  DBLINK-R4035-PAY-MTHD    PIC X(16)
                       VALUE 'R4035-PAY-MTHD'.
               10  DBLINK-R4036-USER-RCRD   PIC X(16)
                       VALUE 'R4036-USER-RCRD'.
               10  DBLINK-R4037-USER-VAL    PIC X(16)
                       VALUE 'R4037-USER-VAL'.
               10  DBLINK-R4038-USER-CODES  PIC X(16)
                       VALUE 'R4038-USER-CODES'.
               10  DBLINK-R4040-CLOSE-HDR   PIC X(16)
                       VALUE 'R4040-CLOSE-HDR'.
               10  DBLINK-R4045-ACTI        PIC X(16)
                       VALUE 'R4045-ACTI'.
               10  DBLINK-R4046-BANK-NAME   PIC X(16)
                       VALUE 'R4046-BANK-NAME'.
               10  DBLINK-R4050-ACTV        PIC X(16)
                       VALUE 'R4050-ACTV'.
               10  DBLINK-R4052-XTRN-ENTY   PIC X(16)
                       VALUE 'R4052-XTRN-ENTY'.
               10  DBLINK-R4053-INTR-ENTY   PIC X(16)
                       VALUE 'R4053-INTR-ENTY'.
               10  DBLINK-R4054-XTRN-CODE   PIC X(16)
                       VALUE 'R4054-XTRN-CODE'.
               10  DBLINK-R4056-AGNC        PIC X(16)
                       VALUE 'R4056-AGNC'.
               10  DBLINK-R4057-RQST-ID     PIC X(16)
                       VALUE 'R4057-RQST-ID'.
               10  DBLINK-R4060-RPT         PIC X(16)
                       VALUE 'R4060-RPT'.
               10  DBLINK-R4064-CS-EFCTV    PIC X(16)
                       VALUE 'R4064-CS-EFCTV'.
               10  DBLINK-R4065-IC-EFCTV    PIC X(16)
                       VALUE 'R4065-IC-EFCTV'.
               10  DBLINK-R4069-JRNL-HDR    PIC X(16)
                       VALUE 'R4069-JRNL-HDR'.
               10  DBLINK-R4070-RQST        PIC X(16)
                       VALUE 'R4070-RQST'.
               10  DBLINK-R4071-RQST-DTL    PIC X(16)
                       VALUE 'R4071-RQST-DTL'.
               10  DBLINK-R4072-BUYER       PIC X(16)
                       VALUE 'R4072-BUYER'.
               10  DBLINK-R4073-VENDOR      PIC X(16)
                       VALUE 'R4073-VENDOR'.
               10  DBLINK-R4074-CMDTY       PIC X(16)
                       VALUE 'R4074-CMDTY'.
               10  DBLINK-R4081-AGRMNT      PIC X(16)
                       VALUE 'R4081-AGRMNT'.
               10  DBLINK-R4083-PO-HDR      PIC X(16)
                       VALUE 'R4083-PO-HDR'.
               10  DBLINK-R4084-PO-CLASS    PIC X(16)
                       VALUE 'R4084-PO-CLASS'.
               10  DBLINK-R4085-PO-DTL      PIC X(16)
                       VALUE 'R4085-PO-DTL'.
               10  DBLINK-R4088-BID         PIC X(16)
                       VALUE 'R4088-BID'.
               10  DBLINK-R4089-BID-DTL     PIC X(16)
                       VALUE 'R4089-BID-DTL'.
               10  DBLINK-R4093-RCVNG-HDR   PIC X(16)
                       VALUE 'R4093-RCVNG-HDR'.
               10  DBLINK-R4096-PO-HDR-SEQ  PIC X(16)
                       VALUE 'R4096-PO-HDR-SEQ'.
               10  DBLINK-R4099-RETURNS     PIC X(16)
                       VALUE 'R4099-RETURNS'.
               10  DBLINK-R4104-VENDOR-CMD  PIC X(16)
                       VALUE 'R4104-VENDOR-CMD'.
               10  DBLINK-R4106-AUTO-JRNL   PIC X(16)
                       VALUE 'R4106-AUTO-JRNL'.
               10  DBLINK-R4120-TXT-HDR     PIC X(16)
                       VALUE 'R4120-TXT-HDR'.
               10  DBLINK-R4150-INV-HDR     PIC X(16)
                       VALUE 'R4150-INV-HDR'.
               10  DBLINK-R4151-INV-DTL     PIC X(16)
                       VALUE 'R4151-INV-DTL'.
               10  DBLINK-R4157-CHK-RQST-H  PIC X(16)
                       VALUE 'R4157-CHK-RQST-H'.
               10  DBLINK-R4158-CHK-HDR     PIC X(16)
                       VALUE 'R4158-CHK-HDR'.
               10  DBLINK-R4161-DSCNT-TBLE  PIC X(16)
                       VALUE 'R4161-DSCNT-TBLE'.
               10  DBLINK-R4163-RSBLE-INV   PIC X(16)
                       VALUE 'R4163-RSBLE-INV'.
               10  DBLINK-R4166-VNDR-TYPE   PIC X(16)
                       VALUE 'R4166-VNDR-TYPE'.
               10  DBLINK-R4168-TAX-RATES   PIC X(16)
                       VALUE 'R4168-TAX-RATES'.
               10  DBLINK-R4174-TOF-HDR     PIC X(16)
                       VALUE 'R4174-TOF-HDR'.
               10  DBLINK-R4180-RULE-CLASS  PIC X(16)
                       VALUE 'R4180-RULE-CLASS'.
               10  DBLINK-R4181-RULE-EFCTV  PIC X(16)
                       VALUE 'R4181-RULE-EFCTV'.
               10  DBLINK-R4183-ENCMBR-YRS  PIC X(16)
                       VALUE 'R4183-ENCMBR-YRS'.
               10  DBLINK-R4187-G-FOAPAL    PIC X(16)
                       VALUE 'R4187-G-FOAPAL'.
               10  DBLINK-R4188-TRAN-HIST   PIC X(16)
                       VALUE 'R4188-TRAN-HIST'.
               10  DBLINK-R4190-ENCMBR-DTL  PIC X(16)
                       VALUE 'R4190-ENCMBR-DTL'.
               10  DBLINK-R4191-ENCMBR-HDR  PIC X(16)
                       VALUE 'R4191-ENCMBR-HDR'.
               10  DBLINK-R4192-USER-PRFL   PIC X(16)
                       VALUE 'R4192-USER-PRFL'.
               10  DBLINK-R4197-GNRL-LDGR   PIC X(16)
                       VALUE 'R4197-GNRL-LDGR'.
               10  DBLINK-R4199-ACCT-LDGR   PIC X(16)
                       VALUE 'R4199-ACCT-LDGR'.
               10  DBLINK-R4203-DOCUMENT    PIC X(16)
                       VALUE 'R4203-DOCUMENT'.
               10  DBLINK-R4204-APRVL-J     PIC X(16)
                       VALUE 'R4204-APRVL-J'.
               10  DBLINK-R4205-APRVL-LVL   PIC X(16)
                       VALUE 'R4205-APRVL-LVL'.
               10  DBLINK-R4209-CLAUSE      PIC X(16)
                       VALUE 'R4209-CLAUSE'.
               10  DBLINK-R4212-APRVL-HDR   PIC X(16)
                       VALUE 'R4212-APRVL-HDR'.
               10  DBLINK-R4215-APRV-TMPLT  PIC X(16)
                       VALUE 'R4215-APRV-TMPLT'.
               10  DBLINK-R4224-DLVRY-HDR   PIC X(16)
                       VALUE 'R4224-DLVRY-HDR'.
               10  DBLINK-R4226-EXPR-VNDR   PIC X(16)
                       VALUE 'R4226-EXPR-VNDR'.
               10  DBLINK-R4228-FILE-CNTL   PIC X(16)
                       VALUE 'R4228-FILE-CNTL'.
               10  DBLINK-R4229-RLSE-HDR    PIC X(16)
                       VALUE 'R4229-RLSE-HDR'.
               10  DBLINK-R4230-RLSE-DTL    PIC X(16)
                       VALUE 'R4230-RLSE-DTL'.
               10  DBLINK-R4232-AP-TRANS    PIC X(16)
                       VALUE 'R4232-AP-TRANS'.
               10  DBLINK-R4300-AST         PIC X(16)
                       VALUE 'R4300-AST'.
               10  DBLINK-R4400-TRVL        PIC X(16)
                       VALUE 'R4400-TRVL'.
               10  DBLINK-R4401-EVENT       PIC X(16)
                       VALUE 'R4401-EVENT'.
               10  DBLINK-R4402-TRIP        PIC X(16)
                       VALUE 'R4402-TRIP'.
               10  DBLINK-R4405-EXPNS       PIC X(16)
                       VALUE 'R4405-EXPNS'.
               10  DBLINK-R4406-RECON       PIC X(16)
                       VALUE 'R4406-RECON'.
               10  DBLINK-R4410-TRVL-INV    PIC X(16)
                       VALUE 'R4410-TRVL-INV'.
               10  DBLINK-R6000-SYS         PIC X(16)
                       VALUE 'R6000-SYS'.
               10  DBLINK-R6001-UNVRS       PIC X(16)
                       VALUE 'R6001-UNVRS'.
               10  DBLINK-R6117-PRSN        PIC X(16)
                       VALUE 'R6117-PRSN'.
               10  DBLINK-R6151-STATE       PIC X(16)
                       VALUE 'R6151-STATE'.
               10  DBLINK-R6152-ZIP         PIC X(16)
                       VALUE 'R6152-ZIP'.
               10  DBLINK-R6153-COUNTRY     PIC X(16)
                       VALUE 'R6153-COUNTRY'.
               10  DBLINK-R6200-ACH-DATA    PIC X(16)
                       VALUE 'R6200-ACH-DATA'.
               10  DBLINK-R6257             PIC X(16)
                       VALUE 'R6257'.
               10  DBLINK-R6258             PIC X(16)
                       VALUE 'R6258'.
               10  DBLINK-R6259             PIC X(16)
                       VALUE 'R6259'.
               10  DBLINK-R6260             PIC X(16)
                       VALUE 'R6260'.
               10  DBLINK-R6268             PIC X(16)
                       VALUE 'R6268'.
               10  DBLINK-R6270             PIC X(16)
                       VALUE 'R6270'.
               10  DBLINK-R6273             PIC X(16)
                       VALUE 'R6273'.
               10  DBLINK-R6311-ENTY        PIC X(16)
                       VALUE 'R6311-ENTY'.
               10  DBLINK-R6313-PRSN-CHG    PIC X(16)
                       VALUE 'R6313-PRSN-CHG'.
               10  DBLINK-R6353-ENTY-CHG    PIC X(16)
                       VALUE 'R6353-ENTY-CHG'.
               10  DBLINK-R6600-TABL-HDR    PIC X(16)
                       VALUE 'R6600-TABL-HDR'.
               10  DBLINK-R6605             PIC X(16)
                       VALUE 'R6605'.
               10  DBLINK-R6606             PIC X(16)
                       VALUE 'R6606'.
               10  DBLINK-R8001             PIC X(16)
                       VALUE 'R8001'.
               10  DBLINK-R8002             PIC X(16)
                       VALUE 'R8002'.
               10  DBLINK-R8003             PIC X(16)
                       VALUE 'R8003'.
               10  DBLINK-R8005             PIC X(16)
                       VALUE 'R8005'.
               10  DBLINK-R8007             PIC X(16)
                       VALUE 'R8007'.
               10  DBLINK-R8008             PIC X(16)
                       VALUE 'R8008'.
               10  DBLINK-R8009             PIC X(16)
                       VALUE 'R8009'.
               10  DBLINK-R8010             PIC X(16)
                       VALUE 'R8010'.
               10  DBLINK-R8013             PIC X(16)
                       VALUE 'R8013'.
               10  DBLINK-R8020             PIC X(16)
                       VALUE 'R8020'.
               10  DBLINK-R8030             PIC X(16)
                       VALUE 'R8030'.
               10  DBLINK-R8040             PIC X(16)
                       VALUE 'R8040'.
               10  DBLINK-R8044             PIC X(16)
                       VALUE 'R8044'.
               10  DBLINK-R8050             PIC X(16)
                       VALUE 'R8050'.
               10  DBLINK-R8051             PIC X(16)
                       VALUE 'R8051'.
               10  DBLINK-R8052             PIC X(16)
                       VALUE 'R8052'.
           05  DBLINK-SET-NAMES.
               10  S-4038-4037              PIC X(16)
                       VALUE 'S-4038-4037'.
               10  S-4052-4054              PIC X(16)
                       VALUE 'S-4052-4054'.
           05  DBLINK-AREA-NAMES.
               10  F-ENTY                   PIC X(16)
                       VALUE 'F-ENTY'.
               10  F-USER-DEFINED           PIC X(16)
                       VALUE 'F-USER-DEFINED'.
           05  DBLINK-RECORD-LOCK-FLAGS.
               10  FILLER                   PIC X(1)        VALUE SPACE.
           05  DBLINK-CURSOR-NAMES.
               10  DBLINK-S-4038-4037-N     PIC X(18)
                       VALUE 'S-4038-4037-N'.
           05  DBLINK-CURSOR-CODES.
               10  DBLINK-S-4038-4037-N-CODE
                                            PIC X(1)        VALUE 'C'.
           02  DBLINK-KEYS.
DEVRRE     EXEC SQL
DEVRRE         INCLUDE CBRSKEYS
DEVRRE     END-EXEC.
      /
      *%-------------------------------------------------------------- *
      *%                                                               *
      *%                  CONTROL AREAS AND VIEWS                      *
      *%                                                               *
      *%-------------------------------------------------------------- *

      *%****************************** *
      *%CONVERT/DB COMMAREA
      *%****************************** *
           EXEC SQL
               INCLUDE SQLCA
           END-EXEC.

      *%****************************** *
      *%UVL_USER_VAL_V AREAS(HOST VAR INCLUDE)
      *%****************************** *
      *%   EXEC SQL
      *%       INCLUDE CBHV4037
CPYNME     EXEC SQL
CPYNME         INCLUDE HVUVL
CPYNME     END-EXEC.
      *%   END-EXEC.

      *%****************************** *
      *%UCD_USER_CDS_V AREAS(HOST VAR INCLUDE)
      *%****************************** *
      *%   EXEC SQL
      *%       INCLUDE CBHV4038
CPYNME     EXEC SQL
CPYNME         INCLUDE HVUCD
CPYNME     END-EXEC.
      *%   END-EXEC.

      *%****************************** *
      *%XTE_XTRN_ENTY_V AREAS(HOST VAR INCLUDE)
      *%****************************** *
      *%   EXEC SQL
      *%       INCLUDE CBHV4052
CPYNME     EXEC SQL
CPYNME         INCLUDE HVXTE
CPYNME     END-EXEC.
      *%   END-EXEC.

      *%****************************** *
      *%XTC_XTRN_CD_V AREAS(HOST VAR INCLUDE)
      *%****************************** *
      *%   EXEC SQL
      *%       INCLUDE CBHV4054
CPYNME     EXEC SQL
CPYNME         INCLUDE HVXTC
CPYNME     END-EXEC.
      *%   END-EXEC.
       LINKAGE SECTION.                                                 BSL800
                                                                        BSL800
      *01  AFPS-RECORD
           COPY BUDAFPS.                                                BSL800
                                                                        BSL800
                                                                        BSL800
                                                                        BSL800

      /
      *%-------------------------------------------------------------- *
      *%                                                               *
      *%                    CURSOR DECLARATIONS                        *
      *%                                                               *
      *%-------------------------------------------------------------- *

      *%****************************** *
      *%CURSOR FOR FORWARD SUBSET OF UVL_USER_VAL_V
      *%****************************** *
           EXEC SQL
               DECLARE S_4038_4037_N CURSOR WITH HOLD FOR
               SELECT
                  USER_CD
                 ,LAST_ACTVY_DT
                 ,FK_UCD_DATA_CD
                 ,DATA_CD_VAL
                 ,FK_URC_RCRD_NBR
                 ,FK_URC_ELMNT_VALUE
                 ,UCD_SET_TS
               FROM UVL_USER_VAL_V
               WHERE FK_UCD_DATA_CD = :DBLINK-S-4038-4037-01
                 AND UCD_SET_TS < :DBLINK-S-4038-4037-02
               ORDER BY UCD_SET_TS  DESC
               OPTIMIZE FOR 1 ROW
           END-EXEC.

       PROCEDURE DIVISION USING AFPS-RECORD                             BSL800
                                AFPS-REC-FOUND-FLAG                     BSL800
                                AFPS-CLOSE-FILES-FLAG                   BSL800
                                AFPS-GET-TITLES-FLAG.                   BSL800
      /
      *%-------------------------------------------------------------- *
      *%                                                               *
      *%              000-SQL-INITIALIZATION ROUTINE                   *
      *%                                                               *
      *%-------------------------------------------------------------- *
       000-SQL-INITIALIZATION.
           MOVE '000-SQL-INITIALIZATION' TO DBLINK-CURR-PARAGRAPH.
           ACCEPT DBLINK-RUN-DATE-2 FROM DATE.
           MOVE DBLINK-RUN-DATE-2-MO TO DBLINK-RUN-DATE-MO.
           MOVE DBLINK-RUN-DATE-2-DY TO DBLINK-RUN-DATE-DY.
           MOVE DBLINK-RUN-DATE-2-YR TO DBLINK-RUN-DATE-YR.
           ACCEPT DBLINK-TIME FROM TIME.
           MOVE DBLINKX-NULL-DB2-DATE-ISO TO DBLINK-DEFAULT-DATE.
           MOVE '0001-01-01' TO DBLINK-LOW-DATE.
           MOVE '9999-12-31' TO DBLINK-HIGH-DATE.
           MOVE DBLINKX-NULL-DB2-TIME-ISO TO DBLINK-DEFAULT-TIME.
           MOVE '00.00.01' TO DBLINK-LOW-TIME.
           MOVE '23.59.59' TO DBLINK-HIGH-TIME.
       000-SQL-INITIALIZATION-EXIT.
           EXIT.

      *READY TRACE.                                                     BSL800
       000-MAINLINE.                                                    BSL800

           IF FIRST-CALL                                                BSL800
               PERFORM 010-OPEN-FILES.                                  BSL800
                                                                        BSL800
           IF AFPS-CLOSE-FILES                                          BSL800
               PERFORM 900-CLOSE-FILES                                  BSL800
           ELSE                                                         BSL800
               PERFORM 100-PROCESS-RECORD.                              BSL800
                                                                        BSL800
       990-BSL800-RETURN.                                               BSL800
           EXIT PROGRAM.                                                BSL800
           EJECT                                                        BSL800
       010-OPEN-FILES.                                                  BSL800
      *%   BIND RUN-UNIT.                                               BSL800
           MOVE 0001 TO DBLINK-CURR-IO-NUM
           MOVE +0 TO SQLCODE
           MOVE ZERO TO ERROR-STATUS
           PERFORM 986-RESET-KEYS
              THRU 986-RESET-KEYS-EXIT.
      *%   BIND R4037-USER-VAL.                                         BSL800
           MOVE 0002 TO DBLINK-CURR-IO-NUM
           MOVE +0 TO SQLCODE
           MOVE ZERO TO ERROR-STATUS.
      *%   BIND R4038-USER-CODES.                                       BSL800
           MOVE 0003 TO DBLINK-CURR-IO-NUM
           MOVE +0 TO SQLCODE
           MOVE ZERO TO ERROR-STATUS.
      *%   BIND R4052-XTRN-ENTY.                                        BSL800
           MOVE 0004 TO DBLINK-CURR-IO-NUM
           MOVE +0 TO SQLCODE
           MOVE ZERO TO ERROR-STATUS.
      *%   BIND R4054-XTRN-CODE.                                        BSL800
           MOVE 0005 TO DBLINK-CURR-IO-NUM
           MOVE +0 TO SQLCODE
           MOVE ZERO TO ERROR-STATUS.
      *%   READY F-ENTY USAGE-MODE RETRIEVAL.
           MOVE 0006 TO DBLINK-CURR-IO-NUM
           MOVE +0 TO SQLCODE
           MOVE ZERO TO ERROR-STATUS.
      *%   READY F-USER-DEFINED USAGE-MODE RETRIEVAL.
           MOVE 0007 TO DBLINK-CURR-IO-NUM
           MOVE +0 TO SQLCODE
           MOVE ZERO TO ERROR-STATUS.
           MOVE 'N' TO FIRST-CALL-FLAG.                                 BSL800
       100-PROCESS-RECORD.                                              BSL800
                                                                        BSL800
           PERFORM 110-TEST-FOR-REJECTED-REC.                           BSL800
                                                                        BSL800
           IF AFPS-RECORD-FOUND                                         BSL800
               PERFORM 120-PROCESS-VALID-RECORD.                        BSL800
                                                                        BSL800
                                                                        BSL800
       110-TEST-FOR-REJECTED-REC.                                       BSL800
                                                                        BSL800
           MOVE 'Y' TO AFPS-REC-FOUND-FLAG.                             BSL800
           MOVE AFPS-ACCOUNT-NO  TO WS-AFPS-ACCOUNT-NO                  BSL800
           MOVE AFPS-FUND-NO     TO WS-AFPS-FUND-NO                     BSL800
      *    IF WS-AFPS-TEST-ACCT NOT NUMERIC  OR                         BSL800
      *       WS-AFPS-TEST-FUND NOT NUMERIC                             BSL800
      *       MOVE 'N' TO AFPS-REC-FOUND-FLAG.                          BSL800
                                                                        BSL800
           IF AFPS-RECORD-FOUND                                         BSL800
               IF AFPS-APPROP-REC                                       BSL800
                  IF WS-AFPS-TEST-ACCT  <  '400000'   OR                BSL800
                     WS-AFPS-TEST-ACCT  >  '899999'                     BSL800
                     MOVE 'N' TO AFPS-REC-FOUND-FLAG                    BSL800
                  ELSE                                                  BSL800
                     NEXT SENTENCE                                      BSL800
               ELSE                                                     BSL800
                  IF AFPS-INCOME-REC                                    BSL800
                     SET GRPX TO 1                                      BSL800
                     SEARCH REV-GRP-TBL                                 BSL800
                        AT END                                          BSL800
                           MOVE 'N' TO AFPS-REC-FOUND-FLAG              BSL800
                        WHEN                                            BSL800
                           AFPS-ACCOUNT-NO NOT <                        BSL800
                              REV-GRP-TBL-ACCT-LO (GRPX)   AND          BSL800
                           AFPS-ACCOUNT-NO NOT >                        BSL800
                              REV-GRP-TBL-ACCT-HI (GRPX)   AND          BSL800
                           AFPS-FUND-NO    NOT <                        BSL800
                              REV-GRP-TBL-FUND-LO (GRPX)   AND          BSL800
                           AFPS-FUND-NO    NOT >                        BSL800
                              REV-GRP-TBL-FUND-HI (GRPX)                BSL800
                                MOVE REV-GRP-TBL-CODE (GRPX) TO         BSL800
                                   AFPS-REV-ACC-FND-GRP.                BSL800
                                                                        BSL800
       120-PROCESS-VALID-RECORD.

           IF AFPS-GET-TITLES
              MOVE SPACE TO AFPS-GET-TITLES-FLAG
              PERFORM 122-GET-TITLES THRU 122-EXIT.
                                                                        BSL800
           MOVE AFPS-SUB-CAMPUS-ID TO AFPS-ATT-SUB-CAMPUS-ID.           BSL800
           MOVE SPACES             TO AFPS-UAS-CODE.                    BSL800
           MOVE SPACES             TO AFPS-PROGRAM-CD.                  BSL800
           MOVE AFPS-FUND-NO       TO AFPS-ATT-FUND-NO.                 BSL800
           IF (AFPS-FUND-NO NOT < '19900') AND                          BSL800
              (AFPS-FUND-NO NOT > '19999')                              BSL800
               MOVE 'G'            TO AFPS-FUND-TYPE                    BSL800
           ELSE                                                         BSL800
               MOVE 'S'            TO AFPS-FUND-TYPE.                   BSL800
           MOVE AFPS-SUB-BUDGET-CD   TO WS-SUB-BUDGET-CODE.             BSL800
           MOVE SPACES               TO WS-SUB-BUDGET-CODE-CHAR-2.      BSL800
           MOVE WS-SUB-BUDGET-CODE   TO AFPS-ATT-SUB-BUDGET-CD.         BSL800
           IF AFPS-INCOME-REC                                           BSL800
               MOVE AFPS-ACCOUNT-NO TO AFPS-REV-ACC-NO                  BSL800
           ELSE                                                         BSL800
                IF AFPS-APPROP-REC                                      BSL800
               PERFORM 121-ASSIGN-FNCTN-COLL-DEPT-CDS THRU 121-EXIT.    BSL800
                                                                        BSL800
                                                                        BSL800
       121-ASSIGN-FNCTN-COLL-DEPT-CDS.                                  BSL800
      *    MOVE AFPS-ACCOUNT-NO TO WS-AFPS-APPROP-ACCT.                 BSL800
      *    MOVE 'Y' TO FUNCTION-CODE-IN-TABLE-FLAG.                     BSL800
      *    SET FNCTX TO 1.                                              BSL800
      *    SEARCH FUNCTION-CODE-TBL                                     BSL800
      *        AT END MOVE 'N' TO FUNCTION-CODE-IN-TABLE-FLAG           BSL800
      *        WHEN                                                     BSL800
      *            AFPS-ACCOUNT-NO NOT <                                BSL800
      *                FUNCTION-CODE-TBL-ACCT-LO (FNCTX)   AND          BSL800
      *            AFPS-ACCOUNT-NO NOT >                                BSL800
      *                FUNCTION-CODE-TBL-ACCT-HI (FNCTX)                BSL800
      *                MOVE FUNCTION-CODE (FNCTX) TO AFPS-FUNCTION-CD.  BSL800
      *                                                                 BSL800
      *    IF FUNCTION-CODE-IN-TABLE-FLAG = 'N'                         BSL800
      *        MOVE WS-FUNCTION-CODE TO AFPS-FUNCTION-CD                BSL800
      *        IF NOT VALID-FUNCTION-CODE                               BSL800
      *            IF AFPS-REC-FOUND-FLAG = 'Y'                         BSL800
      *                MOVE '5' TO AFPS-REC-FOUND-FLAG                  BSL800
      *            ELSE                                                 BSL800
      *                MOVE '6' TO AFPS-REC-FOUND-FLAG.                 BSL800
                                                                        BSL800
           MOVE AFPS-ACCOUNT-NO TO HOLD-FC-ACCOUNT-NO.
           IF FUNCT-CODE-EXC-40
              MOVE '40' TO AFPS-FUNCTION-CD
           ELSE
           IF FUNCT-CODE-EXC-41
              MOVE '41' TO AFPS-FUNCTION-CD
           ELSE
           IF FUNCT-CODE-EXC-44
              MOVE '44' TO AFPS-FUNCTION-CD
           ELSE
           IF FUNCT-CODE-EXC-78
              MOVE '78' TO AFPS-FUNCTION-CD
           ELSE
              MOVE ACCOUNT-1-2 TO AFPS-FUNCTION-CD.


      *    SET COLLX TO 1.                                              BSL800
      *    SEARCH COLLEGE-CODE-TBL                                      BSL800
      *        AT END MOVE WS-COLLEGE-CODE TO AFPS-COLLEGE-CD           BSL800
      *        WHEN                                                     BSL800
      *            AFPS-ACCOUNT-NO NOT <                                BSL800
      *                COLLEGE-CODE-TBL-ACCT-LO (COLLX)   AND           BSL800
      *            AFPS-ACCOUNT-NO NOT >                                BSL800
      *                COLLEGE-CODE-TBL-ACCT-HI (COLLX)                 BSL800
      *                MOVE COLLEGE-CODE (COLLX) TO AFPS-COLLEGE-CD.    BSL800
      *                                                                 BSL800
      *    MOVE WS-DEPT-CODE TO AFPS-DEPT-CD.                           BSL800
      *                                                                 BSL800
      *                                                                 BSL800
           MOVE SPACES TO AFPS-DEPT-CD.
           MOVE '01'   TO UNVRS-CODE-4038.
           MOVE 'COLLCD' TO DATA-CODE-4038.
      *%   OBTAIN CALC R4038-USER-CODES
           MOVE 0008 TO DBLINK-CURR-IO-NUM
           MOVE DBLINK-OBTAIN TO DBLINK-TYPE-SELECT
           MOVE DBLINK-CALC TO DBLINK-TYPE-GET
           MOVE DATA-CODE-4038 OF R4038-USER-CODES TO UCD-DATA-CD
           PERFORM 906-05-R4038-USER-CODES
              THRU 906-05-R4038-USER-CODES-EXIT
      *%       ON ANY-ERROR-STATUS
               IF NOT ANY-ERROR-STATUS
                   PERFORM 999-SQL-STATUS
                      THRU 999-SQL-STATUS-EXIT
               ELSE
                  NEXT SENTENCE.

           IF DB-STATUS-OK
              NEXT SENTENCE
           ELSE
              IF DB-REC-NOT-FOUND
                 MOVE SPACES TO AFPS-COLLEGE-CD
                 GO TO 121-EXIT
              ELSE
                 PERFORM 999-SQL-STATUS
                    THRU 999-SQL-STATUS-EXIT.

      *%   OBTAIN NEXT R4037-USER-VAL WITHIN S-4038-4037
           MOVE 0009 TO DBLINK-CURR-IO-NUM
           MOVE DBLINK-OBTAIN TO DBLINK-TYPE-SELECT
           MOVE DBLINK-NEXT TO DBLINK-TYPE-GET
           PERFORM 906-00N-S-4038-4037
              THRU 906-00N-S-4038-4037-EXIT
      *%      ON ANY-ERROR-STATUS
              IF NOT ANY-ERROR-STATUS
                  PERFORM 999-SQL-STATUS
                     THRU 999-SQL-STATUS-EXIT
              ELSE
                 NEXT SENTENCE.
                                                                        BSL800
           IF DB-STATUS-OK
              MOVE DATA-CODE-VALUE-4037 TO AFPS-COLLEGE-CD
           ELSE
              MOVE SPACES TO AFPS-COLLEGE-CD.
       121-EXIT.                                                        BSL800
           EXIT.

       122-GET-TITLES.                                                  BSL800
      *    GET AFP ACCOUNT AND FUND TITLES FROM EXTERNAL REPORT CODE    BSL800
      *    DESCRIPTION ON IFIS DATA BASE.                               BSL800
                                                                        BSL800
           MOVE '01'            TO UNVRS-CODE-4052.
           MOVE 'A'             TO COA-CODE-4052.
           MOVE 'OPAC'          TO XTRNL-ENTY-CODE-4052.
      *%   OBTAIN CALC R4052-XTRN-ENTY
           MOVE 0010 TO DBLINK-CURR-IO-NUM
           MOVE DBLINK-OBTAIN TO DBLINK-TYPE-SELECT
           MOVE DBLINK-CALC TO DBLINK-TYPE-GET
           MOVE XTRNL-ENTY-CODE-4052 OF R4052-XTRN-ENTY TO
               XTE-XTRNL-ENTY-CD
           PERFORM 906-05-R4052-XTRN-ENTY
              THRU 906-05-R4052-XTRN-ENTY-EXIT
      *%        ON ANY-ERROR-STATUS
                IF NOT ANY-ERROR-STATUS
                    PERFORM 999-SQL-STATUS
                       THRU 999-SQL-STATUS-EXIT
                ELSE
                   NEXT SENTENCE.

           IF DB-STATUS-OK
              PERFORM 131-ACCT-XTRN
           ELSE
              IF DB-REC-NOT-FOUND
                 NEXT SENTENCE
      *          MOVE '1'              TO AFPS-REC-FOUND-FLAG
      *          MOVE 'NO TITLE FOUND' TO AFPS-ACCOUNT-TITLE
              ELSE
                 PERFORM 999-SQL-STATUS
                    THRU 999-SQL-STATUS-EXIT.

           MOVE '01'            TO UNVRS-CODE-4052.
           MOVE 'A'             TO COA-CODE-4052.
           MOVE 'OPFD'          TO XTRNL-ENTY-CODE-4052.
      *%   OBTAIN CALC R4052-XTRN-ENTY
           MOVE 0011 TO DBLINK-CURR-IO-NUM
           MOVE DBLINK-OBTAIN TO DBLINK-TYPE-SELECT
           MOVE DBLINK-CALC TO DBLINK-TYPE-GET
           MOVE XTRNL-ENTY-CODE-4052 OF R4052-XTRN-ENTY TO
               XTE-XTRNL-ENTY-CD
           PERFORM 906-05-R4052-XTRN-ENTY
              THRU 906-05-R4052-XTRN-ENTY-EXIT
      *%        ON ANY-ERROR-STATUS
                IF NOT ANY-ERROR-STATUS
                    PERFORM 999-SQL-STATUS
                       THRU 999-SQL-STATUS-EXIT
                ELSE
                   NEXT SENTENCE.
           IF DB-STATUS-OK
              PERFORM 132-FUND-XTRN
           ELSE
              IF DB-REC-NOT-FOUND
                 MOVE '1'              TO AFPS-REC-FOUND-FLAG
                 MOVE 'NO TITLE FOUND' TO AFPS-FUND-TITLE
                 GO TO 122-EXIT
              ELSE
                 PERFORM 999-SQL-STATUS
                    THRU 999-SQL-STATUS-EXIT.

       122-EXIT.
           EXIT.

       131-ACCT-XTRN.

           MOVE AFPS-ACCOUNT-NO       TO WS-ACCOUNT-4054
           MOVE WS-ACCOUNT-XTRNL-CODE TO XTRNL-CODE-4054
      *%   OBTAIN R4054-XTRN-CODE WITHIN S-4052-4054
      *%      USING XTRNL-CODE-4054
           MOVE 0012 TO DBLINK-CURR-IO-NUM
           MOVE DBLINK-OBTAIN TO DBLINK-TYPE-SELECT
           MOVE DBLINK-SORTED TO DBLINK-TYPE-GET
           MOVE XTRNL-CODE-4054 TO DBLINK-S-4052-4054-KEY-U
           PERFORM 906-02-S-4052-4054
              THRU 906-02-S-4052-4054-EXIT
      *%         ON ANY-ERROR-STATUS
                 IF NOT ANY-ERROR-STATUS
                     PERFORM 999-SQL-STATUS
                        THRU 999-SQL-STATUS-EXIT
                 ELSE
                    NEXT SENTENCE.

           IF DB-STATUS-OK
              MOVE XTRNL-CODE-DESC-4054 TO AFPS-ACCOUNT-TITLE
           ELSE
              IF DB-REC-NOT-FOUND   OR
                 DB-END-OF-SET
      *             MOVE '1'              TO AFPS-REC-FOUND-FLAG
                    MOVE 'NO TITLE FOUND' TO AFPS-ACCOUNT-TITLE
              ELSE
                 PERFORM 999-SQL-STATUS
                    THRU 999-SQL-STATUS-EXIT.

       132-FUND-XTRN.

           MOVE AFPS-FUND-NO          TO WS-FUND-4054
           MOVE WS-FUND-XTRNL-CODE    TO XTRNL-CODE-4054
      *%   OBTAIN R4054-XTRN-CODE WITHIN S-4052-4054
      *%      USING XTRNL-CODE-4054
           MOVE 0013 TO DBLINK-CURR-IO-NUM
           MOVE DBLINK-OBTAIN TO DBLINK-TYPE-SELECT
           MOVE DBLINK-SORTED TO DBLINK-TYPE-GET
           MOVE XTRNL-CODE-4054 TO DBLINK-S-4052-4054-KEY-U
           PERFORM 906-02-S-4052-4054
              THRU 906-02-S-4052-4054-EXIT
      *%         ON ANY-ERROR-STATUS
                 IF NOT ANY-ERROR-STATUS
                     PERFORM 999-SQL-STATUS
                        THRU 999-SQL-STATUS-EXIT
                 ELSE
                    NEXT SENTENCE.

           IF DB-STATUS-OK
              MOVE XTRNL-CODE-DESC-4054 TO AFPS-FUND-TITLE
           ELSE
              IF DB-REC-NOT-FOUND   OR
                 DB-END-OF-SET
                    MOVE '1'              TO AFPS-REC-FOUND-FLAG
                    MOVE 'NO TITLE FOUND' TO AFPS-FUND-TITLE
              ELSE
                 PERFORM 999-SQL-STATUS
                    THRU 999-SQL-STATUS-EXIT.

       200-RECORD-STATUS.
           DISPLAY '****************************'.
           DISPLAY '* PROGRAM NAME: BSL800'.
           DISPLAY '* FILE: ' FILE-NAME-STATUS.
           DISPLAY '* ERROR ENCOUNTERED DURING READ OF VSAM FILE'.
           DISPLAY '* THIS KEY: ' KEY-STATUS.
           DISPLAY '* THE FILE STATUS IS: ' RECORD-STATUS.
           DISPLAY '****************************'.

      *250-VALIDATE-SUB-BUDGET.

      **   IF (AFPS-ACCOUNT-NO < '300000') AND (AFPS-SUB-BUDGET-CD =
      **       SPACES)
      **       MOVE 20 TO AFP-SUB
      **       GO TO 250-VALIDATE-SUB-BUDGET-EXIT.
      **   ADD 1 TO AFP-SUB.
      **   IF HOLD-1ST-SUB-BUDGET = SUB(AFP-SUB)
      **      GO TO 250-VALIDATE-SUB-BUDGET-EXIT.
      **   IF SUB(AFP-SUB) = SPACES
      **      MOVE 'N' TO AFPS-REC-FOUND-FLAG.
      **50-VALIDATE-SUB-BUDGET-EXIT.
      **   EXIT.
       900-CLOSE-FILES.                                                 BSL800
      *%   FINISH.                                                      BSL800
           MOVE 0014 TO DBLINK-CURR-IO-NUM
           MOVE +0 TO SQLCODE
           MOVE ZERO TO ERROR-STATUS
           PERFORM 986-RESET-KEYS
              THRU 986-RESET-KEYS-EXIT
           PERFORM 996-COMMIT
              THRU 996-COMMIT-EXIT
           PERFORM 999-SQL-STATUS
              THRU 999-SQL-STATUS-EXIT.
      ****************************************************************  23720000
      *  THE FOLLOWING PARAGRAPH WILL CAUSE THE PROGRAM TO              23730000
      *  ABORT DUE TO AN IDMS ERROR.                                    23740000
      ****************************************************************  23750000
                                                                        23760000
      *COPY IDMS IDMS-STATUS.                                           23770000
                                                                        23780000
      ****************************************************************  23790000
      *  THE FOLLOWING PARAGRAPH WILL CLOSE THE NON IDMS FILES WHEN     23800000
      *  THE PROGRAM IS ABOUT TO ABORT DUE TO AN IDMS ERROR.            23810000
      ****************************************************************  23820000
       IDMS-ABORT SECTION.                                              23830000
                                                                        23840000
       IDMS-ABORT-EXIT.                                                 23850000
           EXIT.                                                        23860000
      /
      *%-------------------------------------------------------------- *
      *%                                                               *
      *%                   900-START-SUBROUTINES                       *
      *%                                                               *
      *%-------------------------------------------------------------- *
       900-START-SUBROUTINES SECTION.
      *    CONVERT/DB SUBROUTINES FOLLOW
       900-START-SUBROUTINES-EXIT.
           EXIT.

      /
      *%-------------------------------------------------------------- *
      *%                                                               *
      *%                906-00N-S-4038-4037 ROUTINE                    *
      *%                                                               *
      *%-------------------------------------------------------------- *
       906-00N-S-4038-4037.
           MOVE '906-00N-S-4038-4037' TO DBLINK-CURR-PARAGRAPH.
           MOVE ZERO TO ERROR-STATUS.
           MOVE ' ' TO ERROR-AREA.
           MOVE S-4038-4037 TO ERROR-SET.
           MOVE DBLINK-S-4038-4037-N TO DBLINK-CURSOR-NAME-WORK.
           MOVE S-4038-4037 TO DBLINK-SET-NAME-WORK.
           MOVE ' ' TO DBLINK-RECORD-MADE-CURRENT.
           IF DBLINK-S-4038-4037-N-CODE NOT = DBLINK-OPEN
               IF DBLINK-S-4038-4037-KEY = LOW-VALUES
                   MOVE DBLINK-NO-CURRENCY TO ERROR-STATUS
                   MOVE DBLINK-NONE TO DBLINK-TYPE-LOCK
                   GO TO 906-00N-S-4038-4037-EXIT
               END-IF
           END-IF.
           IF DBLINK-TYPE-GET = 'F'
             OR DBLINK-S-4038-4037-KEY-M = LOW-VALUES
               PERFORM 991-CLOSE-CURSORS
                  THRU 991-CLOSE-CURSORS-EXIT
               IF ERROR-STATUS = DBLINK-DB2-ERROR
                   GO TO 906-00N-S-4038-4037-EXIT
               END-IF
           END-IF.
           IF DBLINK-S-4038-4037-KEY-M = LOW-VALUES
             OR DBLINK-TYPE-GET = 'F'
               MOVE DBLINK-HIGH-TIMESTAMP TO DBLINK-S-4038-4037-02
           END-IF.
           IF DBLINK-S-4038-4037-N-CODE NOT = DBLINK-OPEN
               EXEC SQL
                   OPEN S_4038_4037_N
               END-EXEC
               IF SQLCODE NOT = 0
                   MOVE DBLINK-DB2-ERROR TO ERROR-STATUS
                   GO TO 906-00N-S-4038-4037-EXIT
               END-IF
               MOVE DBLINK-OPEN TO DBLINK-S-4038-4037-N-CODE
           END-IF.
           EXEC SQL
               FETCH S_4038_4037_N
               INTO
                  :UVL-USER-CD
                 ,:UVL-LAST-ACTVY-DT
                 ,:UVL-FK-UCD-DATA-CD
                 ,:UVL-DATA-CD-VAL
                 ,:UVL-FK-URC-RCRD-NBR
                 ,:UVL-FK-URC-ELMNT-VALUE
                 ,:UVL-UCD-SET-TS
           END-EXEC.
           IF SQLCODE = +100
               MOVE DBLINK-END-OF-RCDS TO ERROR-STATUS
               MOVE DBLINK-NONE TO DBLINK-TYPE-LOCK
               PERFORM 991-CLOSE-CURSORS
                  THRU 991-CLOSE-CURSORS-EXIT
               IF ERROR-STATUS = DBLINK-DB2-ERROR
                   GO TO 906-00N-S-4038-4037-EXIT
               END-IF
               PERFORM 985-EOS-S-4038-4037
                  THRU 985-EOS-S-4038-4037-EXIT
               MOVE +100 TO SQLCODE
               GO TO 906-00N-S-4038-4037-EXIT
           END-IF.
           IF SQLCODE NOT = 0
               MOVE DBLINK-DB2-ERROR TO ERROR-STATUS
               GO TO 906-00N-S-4038-4037-EXIT
           END-IF.
           PERFORM 985-CURR-R4037-USER-VAL
              THRU 985-CURR-R4037-USER-VAL-EXIT.
           IF ERROR-STATUS = DBLINK-DB2-ERROR
               GO TO 906-00N-S-4038-4037-EXIT
           END-IF.
           IF DBLINK-TYPE-SELECT = 'O'
               PERFORM 975-TO-R4037-USER-VAL
                  THRU 975-TO-R4037-USER-VAL-EXIT
           END-IF.
       906-00N-S-4038-4037-EXIT.
           EXIT.
      /
      *%-------------------------------------------------------------- *
      *%                                                               *
      *%                906-02-S-4052-4054 ROUTINE                     *
      *%                                                               *
      *%-------------------------------------------------------------- *
       906-02-S-4052-4054.
           MOVE '906-02-S-4052-4054' TO DBLINK-CURR-PARAGRAPH.
           MOVE 'R4054-XTRN-CODE' TO ERROR-RECORD.
           MOVE ZERO TO ERROR-STATUS.
           MOVE ' ' TO DBLINK-SET-NAME-WORK.
           IF DBLINK-S-4052-4054-KEY = LOW-VALUES
               MOVE DBLINK-NO-CURRENCY TO ERROR-STATUS
               MOVE DBLINK-NONE TO DBLINK-TYPE-LOCK
               GO TO 906-02-S-4052-4054-EXIT
           END-IF.
           EXEC SQL
               SELECT
                  USER_CD
                 ,LAST_ACTVY_DT
                 ,UNVRS_CD
                 ,COA_CD
                 ,XTRNL_CD
                 ,ACTVY_DT
                 ,STATUS
                 ,XTRNL_CD_DESC
                 ,FK_INE_INT_ENTY_CD
                 ,PKEY_TS
                 ,FK_XTE_XTR_ENTY_CD
                 ,INE_SET_TS
               INTO
                  :XTC-USER-CD
                 ,:XTC-LAST-ACTVY-DT
                 ,:XTC-UNVRS-CD
                 ,:XTC-COA-CD
                 ,:XTC-XTRNL-CD
                 ,:XTC-ACTVY-DT
                 ,:XTC-STATUS
                 ,:XTC-XTRNL-CD-DESC
                 ,:XTC-FK-INE-INT-ENTY-CD
                 ,:XTC-PKEY-TS
                 ,:XTC-FK-XTE-XTR-ENTY-CD
                 ,:XTC-INE-SET-TS
               FROM XTC_XTRN_CD_V
               WHERE FK_XTE_XTR_ENTY_CD = :DBLINK-S-4052-4054-01
                 AND XTRNL_CD = :DBLINK-S-4052-4054-02
           END-EXEC.
           IF SQLCODE = +100
               MOVE DBLINK-NOT-FOUND TO ERROR-STATUS
               MOVE DBLINK-NONE TO DBLINK-TYPE-LOCK
               GO TO 906-02-S-4052-4054-EXIT
           END-IF.
           IF SQLCODE NOT = 0
               MOVE DBLINK-DB2-ERROR TO ERROR-STATUS
               GO TO 906-02-S-4052-4054-EXIT
           END-IF.
           MOVE 'R4054-XTRN-CODE' TO DBLINK-RECORD-MADE-CURRENT.
           PERFORM 985-CURR-R4054-XTRN-CODE
              THRU 985-CURR-R4054-XTRN-CODE-EXIT.
           IF ERROR-STATUS = DBLINK-DB2-ERROR
               GO TO 906-02-S-4052-4054-EXIT
           END-IF.
           IF DBLINK-TYPE-SELECT = 'O'
               PERFORM 975-TO-R4054-XTRN-CODE
                  THRU 975-TO-R4054-XTRN-CODE-EXIT
           END-IF.
       906-02-S-4052-4054-EXIT.
           EXIT.
      /
      *%-------------------------------------------------------------- *
      *%                                                               *
      *%              906-05-R4038-USER-CODES ROUTINE                  *
      *%                                                               *
      *%-------------------------------------------------------------- *
       906-05-R4038-USER-CODES.
           MOVE '906-05-R4038-USER-CODES' TO DBLINK-CURR-PARAGRAPH.
           MOVE 'R4038-USER-CODES' TO ERROR-RECORD.
           MOVE ZERO TO ERROR-STATUS.
           EXEC SQL
               SELECT
                  USER_CD
                 ,LAST_ACTVY_DT
                 ,UNVRS_CD
                 ,DATA_CD
                 ,ACTVY_DT
                 ,SHORT_DESC
                 ,STD_LONG_DESC
                 ,RQRD_DATA_VAL_FLAG
                 ,VLDTN_IND
               INTO
                  :UCD-USER-CD
                 ,:UCD-LAST-ACTVY-DT
                 ,:UCD-UNVRS-CD
                 ,:UCD-DATA-CD
                 ,:UCD-ACTVY-DT
                 ,:UCD-SHORT-DESC
                 ,:UCD-STD-LONG-DESC
                 ,:UCD-RQRD-DATA-VAL-FLAG
                 ,:UCD-VLDTN-IND
               FROM UCD_USER_CDS_V
               WHERE DATA_CD = :UCD-DATA-CD
           END-EXEC.
           IF SQLCODE = +100
               EVALUATE DBLINK-TYPE-GET
                   WHEN DBLINK-CALC
                       MOVE DBLINK-NOT-FOUND TO ERROR-STATUS
                   WHEN DBLINK-CURR
                       MOVE DBLINK-NO-CURRENCY TO ERROR-STATUS
                   WHEN DBLINK-DBKEY
                       MOVE DBLINK-DBKEY-ERROR TO ERROR-STATUS
                   WHEN OTHER
                       MOVE DBLINK-DB2-ERROR TO ERROR-STATUS
               END-EVALUATE
               GO TO 906-05-R4038-USER-CODES-EXIT
           END-IF.
           IF SQLCODE NOT = 0
               MOVE DBLINK-DB2-ERROR TO ERROR-STATUS
               GO TO 906-05-R4038-USER-CODES-EXIT
           END-IF.
           MOVE DBLINK-R4038-USER-CODES TO DBLINK-RECORD-MADE-CURRENT.
           MOVE ' ' TO DBLINK-SET-NAME-WORK.
           MOVE ' ' TO DBLINK-CURSOR-NAME-WORK.
           PERFORM 985-CURR-R4038-USER-CODES
              THRU 985-CURR-R4038-USER-CODES-EXIT.
           IF ERROR-STATUS = DBLINK-DB2-ERROR
               GO TO 906-05-R4038-USER-CODES-EXIT
           END-IF.
           IF DBLINK-TYPE-SELECT = 'O'
               PERFORM 975-TO-R4038-USER-CODES
                  THRU 975-TO-R4038-USER-CODES-EXIT
           END-IF.
       906-05-R4038-USER-CODES-EXIT.
           EXIT.
      /
      *%-------------------------------------------------------------- *
      *%                                                               *
      *%              906-05-R4052-XTRN-ENTY ROUTINE                   *
      *%                                                               *
      *%-------------------------------------------------------------- *
       906-05-R4052-XTRN-ENTY.
           MOVE '906-05-R4052-XTRN-ENTY' TO DBLINK-CURR-PARAGRAPH.
           MOVE 'R4052-XTRN-ENTY' TO ERROR-RECORD.
           MOVE ZERO TO ERROR-STATUS.
           EXEC SQL
               SELECT
                  USER_CD
                 ,LAST_ACTVY_DT
                 ,UNVRS_CD
                 ,COA_CD
                 ,XTRNL_ENTY_CD
                 ,ACTVY_DT
                 ,XTRNL_ENTY_DESC
               INTO
                  :XTE-USER-CD
                 ,:XTE-LAST-ACTVY-DT
                 ,:XTE-UNVRS-CD
                 ,:XTE-COA-CD
                 ,:XTE-XTRNL-ENTY-CD
                 ,:XTE-ACTVY-DT
                 ,:XTE-XTRNL-ENTY-DESC
               FROM XTE_XTRN_ENTY_V
               WHERE XTRNL_ENTY_CD = :XTE-XTRNL-ENTY-CD
           END-EXEC.
           IF SQLCODE = +100
               EVALUATE DBLINK-TYPE-GET
                   WHEN DBLINK-CALC
                       MOVE DBLINK-NOT-FOUND TO ERROR-STATUS
                   WHEN DBLINK-CURR
                       MOVE DBLINK-NO-CURRENCY TO ERROR-STATUS
                   WHEN DBLINK-DBKEY
                       MOVE DBLINK-DBKEY-ERROR TO ERROR-STATUS
                   WHEN OTHER
                       MOVE DBLINK-DB2-ERROR TO ERROR-STATUS
               END-EVALUATE
               GO TO 906-05-R4052-XTRN-ENTY-EXIT
           END-IF.
           IF SQLCODE NOT = 0
               MOVE DBLINK-DB2-ERROR TO ERROR-STATUS
               GO TO 906-05-R4052-XTRN-ENTY-EXIT
           END-IF.
           MOVE DBLINK-R4052-XTRN-ENTY TO DBLINK-RECORD-MADE-CURRENT.
           MOVE ' ' TO DBLINK-SET-NAME-WORK.
           MOVE ' ' TO DBLINK-CURSOR-NAME-WORK.
           PERFORM 985-CURR-R4052-XTRN-ENTY
              THRU 985-CURR-R4052-XTRN-ENTY-EXIT.
           IF ERROR-STATUS = DBLINK-DB2-ERROR
               GO TO 906-05-R4052-XTRN-ENTY-EXIT
           END-IF.
           IF DBLINK-TYPE-SELECT = 'O'
               PERFORM 975-TO-R4052-XTRN-ENTY
                  THRU 975-TO-R4052-XTRN-ENTY-EXIT
           END-IF.
       906-05-R4052-XTRN-ENTY-EXIT.
           EXIT.

      *%****************************** *
      *% 975-TO-R4037-USER-VAL ROUTINE
      *%****************************** *
      *%   COPY CB754037.
CPYNME     COPY HVIDUVL.

      *%****************************** *
      *% 975-TO-R4038-USER-CODES ROUTINE
      *%****************************** *
      *%   COPY CB754038.
CPYNME     COPY HVIDUCD.

      *%****************************** *
      *% 975-TO-R4052-XTRN-ENTY ROUTINE
      *%****************************** *
      *%   COPY CB754052.
CPYNME     COPY HVIDXTE.

      *%****************************** *
      *% 975-TO-R4054-XTRN-CODE ROUTINE
      *%****************************** *
      *%   COPY CB754054.
CPYNME     COPY HVIDXTC.

      *%****************************** *
      *% 976-FROM-R4037-USER-VAL ROUTINE
      *%****************************** *
      *%   COPY CB764037.
CPYNME     COPY IDHVUVL.

      *%****************************** *
      *% 976-FROM-R4038-USER-CODES ROUTINE
      *%****************************** *
      *%   COPY CB764038.
CPYNME     COPY IDHVUCD.

      *%****************************** *
      *% 976-FROM-R4052-XTRN-ENTY ROUTINE
      *%****************************** *
      *%   COPY CB764052.
CPYNME     COPY IDHVXTE.

      *%****************************** *
      *% 976-FROM-R4054-XTRN-CODE ROUTINE
      *%****************************** *
      *%   COPY CB764054.
CPYNME     COPY IDHVXTC.
      /
      *%-------------------------------------------------------------- *
      *%                                                               *
      *%              985-CURR-R4037-USER-VAL ROUTINE                  *
      *%                                                               *
      *%-------------------------------------------------------------- *
       985-CURR-R4037-USER-VAL.
           MOVE '985-CURR-R4037-USER-VAL' TO DBLINK-CURR-PARAGRAPH.

      *%****************************** *
      *%INITIALIZE DBLINK SUBSCHEMA-CTRL
      *%****************************** *
           MOVE ZERO TO ERROR-STATUS.
           MOVE SPACES TO ERROR-AREA.
           MOVE SPACES TO ERROR-SET.
           MOVE SPACES TO ERROR-RECORD.
           MOVE 'R4037-USER-VAL' TO RECORD-NAME.
           MOVE 'F-USER-DEFINED' TO AREA-NAME.

      *%****************************** *
      *%CLOSE ALL RECORD-RELATED CURSORS
      *%****************************** *
           MOVE DBLINK-R4037-USER-VAL TO DBLINK-RECORD-MADE-CURRENT.
           MOVE ' ' TO DBLINK-CURSOR-NAME-WORK.
           PERFORM 991-CLOSE-CURSORS
              THRU 991-CLOSE-CURSORS-EXIT.
           IF ERROR-STATUS = DBLINK-DB2-ERROR
               GO TO 985-CURR-R4037-USER-VAL-EXIT
           END-IF.
           MOVE ' ' TO DBLINK-RECORD-MADE-CURRENT.

      *%****************************** *
      *%SET RECORD KEY
      *%****************************** *
           IF DBLINK-TYPE-GET NOT = DBLINK-CURR
               MOVE UVL-FK-URC-RCRD-NBR TO DBLINK-R4037-USER-VAL-01
               MOVE UVL-FK-URC-ELMNT-VALUE TO DBLINK-R4037-USER-VAL-02
               MOVE UVL-FK-UCD-DATA-CD TO DBLINK-R4037-USER-VAL-03
           END-IF.

      *%****************************** *
      *%SET CURRENT OF RUN-UNIT
      *%****************************** *
           MOVE DBLINK-R4037-USER-VAL TO DBLINK-VIEW-NAME-CURRENT.
           MOVE DBLINK-R4037-USER-VAL-KEY TO DBLINK-VIEW-200-CURRENT.

      *%****************************** *
      *%SET KEYS FOR SETS WHICH RECORD OWNS
      *%****************************** *

      *%****************************** *
      *%SET KEYS FOR SETS IN WHICH RECORD IS MEMBER
      *%****************************** *

      *%****************************** *
      *%SET S-4038-4037
      *%****************************** *
           MOVE UVL-FK-UCD-DATA-CD TO DBLINK-S-4038-4037-01.
           MOVE UVL-UCD-SET-TS TO DBLINK-S-4038-4037-02.
       985-CURR-R4037-USER-VAL-EXIT.
           EXIT.
      /
      *%-------------------------------------------------------------- *
      *%                                                               *
      *%             985-CURR-R4038-USER-CODES ROUTINE                 *
      *%                                                               *
      *%-------------------------------------------------------------- *
       985-CURR-R4038-USER-CODES.
           MOVE '985-CURR-R4038-USER-CODES' TO DBLINK-CURR-PARAGRAPH.

      *%****************************** *
      *%INITIALIZE DBLINK SUBSCHEMA-CTRL
      *%****************************** *
           MOVE ZERO TO ERROR-STATUS.
           MOVE SPACES TO ERROR-AREA.
           MOVE SPACES TO ERROR-SET.
           MOVE SPACES TO ERROR-RECORD.
           MOVE 'R4038-USER-CODES' TO RECORD-NAME.
           MOVE 'F-USER-DEFINED' TO AREA-NAME.

      *%****************************** *
      *%CLOSE ALL RECORD-RELATED CURSORS
      *%****************************** *
           MOVE DBLINK-R4038-USER-CODES TO DBLINK-RECORD-MADE-CURRENT.
           MOVE ' ' TO DBLINK-CURSOR-NAME-WORK.
           PERFORM 991-CLOSE-CURSORS
              THRU 991-CLOSE-CURSORS-EXIT.
           IF ERROR-STATUS = DBLINK-DB2-ERROR
               GO TO 985-CURR-R4038-USER-CODES-EXIT
           END-IF.
           MOVE ' ' TO DBLINK-RECORD-MADE-CURRENT.

      *%****************************** *
      *%SET RECORD KEY
      *%****************************** *
           IF DBLINK-TYPE-GET NOT = DBLINK-CURR
               MOVE UCD-DATA-CD TO DBLINK-R4038-USER-CODES-01
           END-IF.

      *%****************************** *
      *%SET CURRENT OF RUN-UNIT
      *%****************************** *
           MOVE DBLINK-R4038-USER-CODES TO DBLINK-VIEW-NAME-CURRENT.
           MOVE DBLINK-R4038-USER-CODES-KEY TO DBLINK-VIEW-200-CURRENT.

      *%****************************** *
      *%SET KEYS FOR SETS WHICH RECORD OWNS
      *%****************************** *

      *%****************************** *
      *%SET S-4038-4037
      *%****************************** *
           MOVE DBLINK-R4038-USER-CODES-01 TO DBLINK-S-4038-4037-01.
           MOVE LOW-VALUES TO DBLINK-S-4038-4037-KEY-M.

      *%****************************** *
      *%SET KEYS FOR SETS IN WHICH RECORD IS MEMBER
      *%****************************** *
       985-CURR-R4038-USER-CODES-EXIT.
           EXIT.
      /
      *%-------------------------------------------------------------- *
      *%                                                               *
      *%             985-CURR-R4052-XTRN-ENTY ROUTINE                  *
      *%                                                               *
      *%-------------------------------------------------------------- *
       985-CURR-R4052-XTRN-ENTY.
           MOVE '985-CURR-R4052-XTRN-ENTY' TO DBLINK-CURR-PARAGRAPH.

      *%****************************** *
      *%INITIALIZE DBLINK SUBSCHEMA-CTRL
      *%****************************** *
           MOVE ZERO TO ERROR-STATUS.
           MOVE SPACES TO ERROR-AREA.
           MOVE SPACES TO ERROR-SET.
           MOVE SPACES TO ERROR-RECORD.
           MOVE 'R4052-XTRN-ENTY' TO RECORD-NAME.
           MOVE 'F-ENTY' TO AREA-NAME.

      *%****************************** *
      *%CLOSE ALL RECORD-RELATED CURSORS
      *%****************************** *
           MOVE DBLINK-R4052-XTRN-ENTY TO DBLINK-RECORD-MADE-CURRENT.
           MOVE ' ' TO DBLINK-CURSOR-NAME-WORK.
           PERFORM 991-CLOSE-CURSORS
              THRU 991-CLOSE-CURSORS-EXIT.
           IF ERROR-STATUS = DBLINK-DB2-ERROR
               GO TO 985-CURR-R4052-XTRN-ENTY-EXIT
           END-IF.
           MOVE ' ' TO DBLINK-RECORD-MADE-CURRENT.

      *%****************************** *
      *%SET RECORD KEY
      *%****************************** *
           IF DBLINK-TYPE-GET NOT = DBLINK-CURR
               MOVE XTE-XTRNL-ENTY-CD TO DBLINK-R4052-XTRN-ENTY-01
           END-IF.

      *%****************************** *
      *%SET CURRENT OF RUN-UNIT
      *%****************************** *
           MOVE DBLINK-R4052-XTRN-ENTY TO DBLINK-VIEW-NAME-CURRENT.
           MOVE DBLINK-R4052-XTRN-ENTY-KEY TO DBLINK-VIEW-200-CURRENT.

      *%****************************** *
      *%SET KEYS FOR SETS WHICH RECORD OWNS
      *%****************************** *

      *%****************************** *
      *%SET S-4052-4054
      *%****************************** *
           MOVE DBLINK-R4052-XTRN-ENTY-01 TO DBLINK-S-4052-4054-01.
           MOVE LOW-VALUES TO DBLINK-S-4052-4054-KEY-M.

      *%****************************** *
      *%SET KEYS FOR SETS IN WHICH RECORD IS MEMBER
      *%****************************** *
       985-CURR-R4052-XTRN-ENTY-EXIT.
           EXIT.
      /
      *%-------------------------------------------------------------- *
      *%                                                               *
      *%             985-CURR-R4054-XTRN-CODE ROUTINE                  *
      *%                                                               *
      *%-------------------------------------------------------------- *
       985-CURR-R4054-XTRN-CODE.
           MOVE '985-CURR-R4054-XTRN-CODE' TO DBLINK-CURR-PARAGRAPH.

      *%****************************** *
      *%INITIALIZE DBLINK SUBSCHEMA-CTRL
      *%****************************** *
           MOVE ZERO TO ERROR-STATUS.
           MOVE SPACES TO ERROR-AREA.
           MOVE SPACES TO ERROR-SET.
           MOVE SPACES TO ERROR-RECORD.
           MOVE 'R4054-XTRN-CODE' TO RECORD-NAME.
           MOVE 'F-ENTY' TO AREA-NAME.

      *%****************************** *
      *%CLOSE ALL RECORD-RELATED CURSORS
      *%****************************** *
           MOVE DBLINK-R4054-XTRN-CODE TO DBLINK-RECORD-MADE-CURRENT.
           MOVE ' ' TO DBLINK-CURSOR-NAME-WORK.
           PERFORM 991-CLOSE-CURSORS
              THRU 991-CLOSE-CURSORS-EXIT.
           IF ERROR-STATUS = DBLINK-DB2-ERROR
               GO TO 985-CURR-R4054-XTRN-CODE-EXIT
           END-IF.
           MOVE ' ' TO DBLINK-RECORD-MADE-CURRENT.

      *%****************************** *
      *%SET RECORD KEY
      *%****************************** *
           IF DBLINK-TYPE-GET NOT = DBLINK-CURR
               MOVE XTC-XTRNL-CD TO DBLINK-R4054-XTRN-CODE-01
               MOVE XTC-PKEY-TS TO DBLINK-R4054-XTRN-CODE-02
           END-IF.

      *%****************************** *
      *%SET CURRENT OF RUN-UNIT
      *%****************************** *
           MOVE DBLINK-R4054-XTRN-CODE TO DBLINK-VIEW-NAME-CURRENT.
           MOVE DBLINK-R4054-XTRN-CODE-KEY TO DBLINK-VIEW-200-CURRENT.

      *%****************************** *
      *%SET KEYS FOR SETS WHICH RECORD OWNS
      *%****************************** *

      *%****************************** *
      *%SET KEYS FOR SETS IN WHICH RECORD IS MEMBER
      *%****************************** *

      *%****************************** *
      *%SET S-4052-4054
      *%****************************** *
           MOVE XTC-FK-XTE-XTR-ENTY-CD TO DBLINK-S-4052-4054-01.
           MOVE XTC-XTRNL-CD TO DBLINK-S-4052-4054-02.
       985-CURR-R4054-XTRN-CODE-EXIT.
           EXIT.
      /
      *%-------------------------------------------------------------- *
      *%                                                               *
      *%                985-EOS-S-4038-4037 ROUTINE                    *
      *%                                                               *
      *%-------------------------------------------------------------- *
       985-EOS-S-4038-4037.
           MOVE '985-EOS-S-4038-4037' TO DBLINK-CURR-PARAGRAPH.

      *%****************************** *
      *%INITIALIZE DBLINK SUBSCHEMA-CTRL
      *%****************************** *
           MOVE SPACES TO ERROR-AREA.
           MOVE SPACES TO ERROR-RECORD.
           MOVE 'R4038-USER-CODES' TO RECORD-NAME.
           MOVE 'F-USER-DEFINED' TO AREA-NAME.

      *%****************************** *
      *%SET OWNER RECORD KEY
      *%****************************** *
           MOVE DBLINK-S-4038-4037-01 TO DBLINK-R4038-USER-CODES-01.

      *%****************************** *
      *%SET CURRENT OF RUN-UNIT
      *%****************************** *
           MOVE DBLINK-R4038-USER-CODES TO DBLINK-VIEW-NAME-CURRENT.
           MOVE DBLINK-R4038-USER-CODES-KEY TO DBLINK-VIEW-200-CURRENT.

      *%****************************** *
      *%SET KEY FOR SET
      *%****************************** *

      *%****************************** *
      *%SET S-4038-4037
      *%****************************** *
           MOVE LOW-VALUES TO DBLINK-S-4038-4037-KEY-M.
       985-EOS-S-4038-4037-EXIT.
           EXIT.
      /
      *%-------------------------------------------------------------- *
      *%                                                               *
      *%                  986-RESET-KEYS ROUTINE                       *
      *%                                                               *
      *%-------------------------------------------------------------- *
       986-RESET-KEYS.
           MOVE '986-RESET-KEYS' TO DBLINK-CURR-PARAGRAPH.
           MOVE SPACES TO DBLINK-RECORD-KEYS.
           MOVE LOW-VALUES TO DBLINK-SET-KEYS.
       986-RESET-KEYS-EXIT.
           EXIT.
      /
      *%-------------------------------------------------------------- *
      *%                                                               *
      *%                 991-CLOSE-CURSORS ROUTINE                     *
      *%                                                               *
      *%-------------------------------------------------------------- *
       991-CLOSE-CURSORS.
           IF DBLINK-S-4038-4037-N-CODE = DBLINK-OPEN
               IF DBLINK-CURSOR-NAME-WORK = DBLINK-S-4038-4037-N
                 OR DBLINK-CURSOR-NAME-WORK = '$$ALL'
                 OR DBLINK-CURSOR-NAME-WORK = S-4038-4037
                 OR DBLINK-RECORD-MADE-CURRENT = DBLINK-R4038-USER-CODES
                   EXEC SQL
                       CLOSE S_4038_4037_N
                   END-EXEC
                   IF SQLCODE NOT = 0
                       MOVE DBLINK-DB2-ERROR TO ERROR-STATUS
                       GO TO 991-CLOSE-CURSORS-EXIT
                   END-IF
                   MOVE DBLINK-CLOSED TO DBLINK-S-4038-4037-N-CODE
                 ELSE
               IF (DBLINK-RECORD-MADE-CURRENT = DBLINK-R4037-USER-VAL
                 AND DBLINK-SET-NAME-WORK NOT = S-4038-4037)
                   EXEC SQL
                       CLOSE S_4038_4037_N
                   END-EXEC
                   IF SQLCODE NOT = 0
                       MOVE DBLINK-DB2-ERROR TO ERROR-STATUS
                       GO TO 991-CLOSE-CURSORS-EXIT
                   END-IF
                   MOVE DBLINK-CLOSED TO DBLINK-S-4038-4037-N-CODE
               END-IF
           END-IF.
       991-CLOSE-CURSORS-EXIT.
           EXIT.
      /
      *%-------------------------------------------------------------- *
      *%                                                               *
      *%                    996-COMMIT ROUTINE                         *
      *%                                                               *
      *%-------------------------------------------------------------- *
       996-COMMIT.
           MOVE '996-COMMIT' TO DBLINK-CURR-PARAGRAPH.
           EXEC SQL
               COMMIT WORK
           END-EXEC.
       996-COMMIT-EXIT.
           EXIT.
      /
      *%-------------------------------------------------------------- *
      *%                                                               *
      *%                  999-SQL-STATUS ROUTINE                       *
      *%                                                               *
      *%-------------------------------------------------------------- *
       999-SQL-STATUS.
           EXEC SQL
               INCLUDE BTCHERR
           END-EXEC.
       999-SQL-STATUS-EXIT.
           EXIT.

